^E:\WORKSPACE\PRYSTINE\SIMULINK\UC1\MODULES\VSC++\TECLIBS\CMAKELISTS.TXT
setlocal"C:\Program Files\CMake\bin\cmake.exe" -SE:/Workspace/prystine/simulink/UC1/modules/vsc++ -BE:/Workspace/prystine/simulink/UC1/modules/vsc++/build --check-stamp-file E:/Workspace/prystine/simulink/UC1/modules/vsc++/build/TecLibs/CMakeFiles/generate.stampif %errorlevel% neq 0 goto :cmEnd:cmEndendlocal & call :cmErrorLevel %errorlevel% & goto :cmDone:cmErrorLevelexit /b %1:cmDoneif %errorlevel% neq 0 goto :VCEnd
^C:\MAURICIO\HADRIAN\SIMULINK\EXP_HAROLD\MODULES\VSC++\TECLIBS\CMAKELISTS.TXT
setlocal"C:\Program Files\CMake\bin\cmake.exe" -SC:/Mauricio/hadrian/simulink/exp_harold/modules/vsc++ -BC:/Mauricio/hadrian/simulink/exp_harold/modules/vsc++/build --check-stamp-file C:/Mauricio/hadrian/simulink/exp_harold/modules/vsc++/build/TecLibs/CMakeFiles/generate.stampif %errorlevel% neq 0 goto :cmEnd:cmEndendlocal & call :cmErrorLevel %errorlevel% & goto :cmDone:cmErrorLevelexit /b %1:cmDoneif %errorlevel% neq 0 goto :VCEnd
^C:\MAURICIO\AUTOEVAL\SIMULINK\EVASION\MODULES\VSC++\TECLIBS\CMAKELISTS.TXT
setlocal"C:\Program Files\CMake\bin\cmake.exe" -SC:/Mauricio/autoeval/simulink/evasion/modules/vsc++ -BC:/Xabi/autoeval/simulink/evasion/modules/vsc++/build --check-stamp-file C:/Xabi/autoeval/simulink/evasion/modules/vsc++/build/TecLibs/CMakeFiles/generate.stampif %errorlevel% neq 0 goto :cmEnd:cmEndendlocal & call :cmErrorLevel %errorlevel% & goto :cmDone:cmErrorLevelexit /b %1:cmDoneif %errorlevel% neq 0 goto :VCEnd
