
 =============================
 ============ MPC ============
 =============================

        MPC VALUES
---------------------------
 Torque cmd:  0.082
 Status:      0
 Prep status: 0

      TIME VALUES
---------------------------
 Loop time [ms]:  11.097
 Exec time [ms]:  1.946

      VEHICLE DATA
---------------------------
Location: (-119.874, -46.529, 0.102)
Rotation: (-0.000, -0.000, -0.714)
Velocity: (0.003, -0.000, -0.000)
Acceleration: (0.070, -0.019, 9.730)
Angular Velocity: (-0.000, 0.000, -0.000)
Lateral Error: -0.001
Heading Error: -0.000
Steer Wheel Angle: 0.034
Steer Wheel Angular Velocity: 0.000
Steer Wheel Torque Control: 0.082


      ACADO COSAS
---------------------------


Differential variables:
[
	-1.198741e+02	-4.652852e+01	-7.143308e-01	3.146195e-03	-5.294925e-05	-3.032505e-04	-9.958001e-06	-9.849546e-04	3.471679e-02	3.472313e-02	8.192602e-02
	-1.198739e+02	-4.652852e+01	-7.143309e-01	3.146195e-03	-5.278868e-05	-3.026905e-04	-1.002515e-05	-9.850654e-04	3.733385e-02	6.091411e-02	8.173280e-02
	-1.198738e+02	-4.652852e+01	-7.143309e-01	3.146195e-03	-5.269958e-05	-3.021747e-04	-1.009830e-05	-9.851861e-04	4.108980e-02	8.051053e-02	8.119628e-02
	-1.198736e+02	-4.652852e+01	-7.143310e-01	3.146195e-03	-5.266396e-05	-3.016920e-04	-1.017928e-05	-9.853197e-04	4.569312e-02	9.499217e-02	8.035756e-02
	-1.198735e+02	-4.652852e+01	-7.143311e-01	3.146195e-03	-5.266786e-05	-3.012340e-04	-1.026947e-05	-9.854685e-04	5.091736e-02	1.054928e-01	7.925593e-02
	-1.198733e+02	-4.652852e+01	-7.143312e-01	3.146195e-03	-5.270040e-05	-3.007941e-04	-1.036985e-05	-9.856342e-04	5.658598e-02	1.128843e-01	7.792893e-02
	-1.198731e+02	-4.652852e+01	-7.143313e-01	3.146195e-03	-5.275305e-05	-3.003671e-04	-1.048111e-05	-9.858177e-04	6.256090e-02	1.178403e-01	7.641235e-02
	-1.198730e+02	-4.652852e+01	-7.143314e-01	3.146195e-03	-5.281913e-05	-2.999490e-04	-1.060374e-05	-9.860201e-04	6.873384e-02	1.208842e-01	7.474019e-02
	-1.198728e+02	-4.652852e+01	-7.143316e-01	3.146195e-03	-5.289340e-05	-2.995366e-04	-1.073802e-05	-9.862416e-04	7.501974e-02	1.224252e-01	7.294473e-02
	-1.198727e+02	-4.652852e+01	-7.143317e-01	3.146195e-03	-5.297174e-05	-2.991274e-04	-1.088408e-05	-9.864826e-04	8.135174e-02	1.227856e-01	7.105648e-02
	-1.198725e+02	-4.652852e+01	-7.143319e-01	3.146195e-03	-5.305089e-05	-2.987195e-04	-1.104198e-05	-9.867431e-04	8.767741e-02	1.222216e-01	6.910418e-02
	-1.198723e+02	-4.652852e+01	-7.143321e-01	3.146195e-03	-5.312834e-05	-2.983112e-04	-1.121165e-05	-9.870231e-04	9.395578e-02	1.209384e-01	6.711479e-02
	-1.198722e+02	-4.652852e+01	-7.143322e-01	3.146195e-03	-5.320213e-05	-2.979015e-04	-1.139298e-05	-9.873223e-04	1.001552e-01	1.191021e-01	6.511350e-02
	-1.198720e+02	-4.652852e+01	-7.143324e-01	3.146195e-03	-5.327076e-05	-2.974894e-04	-1.158580e-05	-9.876404e-04	1.062514e-01	1.168489e-01	6.312367e-02
	-1.198719e+02	-4.652852e+01	-7.143326e-01	3.146195e-03	-5.333312e-05	-2.970742e-04	-1.178990e-05	-9.879772e-04	1.122265e-01	1.142909e-01	6.116682e-02
	-1.198717e+02	-4.652852e+01	-7.143328e-01	3.146195e-03	-5.338842e-05	-2.966554e-04	-1.200504e-05	-9.883322e-04	1.180677e-01	1.115219e-01	5.926265e-02
	-1.198716e+02	-4.652852e+01	-7.143331e-01	3.146195e-03	-5.343612e-05	-2.962328e-04	-1.223096e-05	-9.887049e-04	1.237663e-01	1.086207e-01	5.742895e-02
	-1.198714e+02	-4.652852e+01	-7.143333e-01	3.146195e-03	-5.347591e-05	-2.958061e-04	-1.246738e-05	-9.890950e-04	1.293175e-01	1.056543e-01	5.568164e-02
	-1.198712e+02	-4.652852e+01	-7.143336e-01	3.146195e-03	-5.350769e-05	-2.953753e-04	-1.271404e-05	-9.895020e-04	1.347195e-01	1.026793e-01	5.403472e-02
	-1.198711e+02	-4.652852e+01	-7.143338e-01	3.146195e-03	-5.353150e-05	-2.949404e-04	-1.297065e-05	-9.899254e-04	1.399731e-01	9.974458e-02	5.250026e-02
	-1.198709e+02	-4.652852e+01	-7.143341e-01	3.146195e-03	-5.354752e-05	-2.945014e-04	-1.323694e-05	-9.903648e-04	1.450814e-01	9.689149e-02	5.108840e-02
	-1.198708e+02	-4.652852e+01	-7.143344e-01	3.146195e-03	-5.355606e-05	-2.940587e-04	-1.351264e-05	-9.908197e-04	1.500493e-01	9.415535e-02	4.980736e-02
	-1.198706e+02	-4.652853e+01	-7.143346e-01	3.146195e-03	-5.355752e-05	-2.936124e-04	-1.379749e-05	-9.912897e-04	1.548835e-01	9.156594e-02	4.866347e-02
	-1.198705e+02	-4.652853e+01	-7.143349e-01	3.146195e-03	-5.355238e-05	-2.931629e-04	-1.409126e-05	-9.917744e-04	1.595919e-01	8.914807e-02	4.766122e-02
	-1.198703e+02	-4.652853e+01	-7.143352e-01	3.146195e-03	-5.354122e-05	-2.927104e-04	-1.439372e-05	-9.922735e-04	1.641836e-01	8.692202e-02	4.680337e-02
	-1.198701e+02	-4.652853e+01	-7.143355e-01	3.146195e-03	-5.352463e-05	-2.922553e-04	-1.470465e-05	-9.927865e-04	1.686687e-01	8.490394e-02	4.609110e-02
	-1.198700e+02	-4.652853e+01	-7.143359e-01	3.146195e-03	-5.350327e-05	-2.917981e-04	-1.502387e-05	-9.933132e-04	1.730578e-01	8.310620e-02	4.552423e-02
	-1.198698e+02	-4.652853e+01	-7.143362e-01	3.146195e-03	-5.347784e-05	-2.913391e-04	-1.535121e-05	-9.938533e-04	1.773623e-01	8.153785e-02	4.510153e-02
	-1.198697e+02	-4.652853e+01	-7.143365e-01	3.146195e-03	-5.344905e-05	-2.908788e-04	-1.568652e-05	-9.944066e-04	1.815937e-01	8.020501e-02	4.482120e-02
	-1.198695e+02	-4.652853e+01	-7.143369e-01	3.146195e-03	-5.341763e-05	-2.904176e-04	-1.602968e-05	-9.949728e-04	1.857639e-01	7.911156e-02	4.468151e-02
	-1.198694e+02	-4.652863e+01	-7.143383e-01	3.146135e-03	-5.371999e-05	-2.887457e-04	-1.748600e-05	-9.973783e-04	1.898573e-01	7.839179e-02	4.454181e-02
]


Control variables:
[
	-7.729013e-03
	-2.146070e-02
	-3.354897e-02
	-4.406511e-02
	-5.307982e-02
	-6.066349e-02
	-6.688628e-02
	-7.181837e-02
	-7.553007e-02
	-7.809202e-02
	-7.957532e-02
	-8.005164e-02
	-7.959341e-02
	-7.827383e-02
	-7.616699e-02
	-7.334786e-02
	-6.989227e-02
	-6.587676e-02
	-6.137842e-02
	-5.647445e-02
	-5.124168e-02
	-4.575575e-02
	-4.008999e-02
	-3.431383e-02
	-2.849067e-02
	-2.267493e-02
	-1.690804e-02
	-1.121313e-02
	-5.587786e-03
	-5.587786e-03
]

Predictions X 		 Predictions Y
-119.874		 -46.529
-119.874		 -46.529
-119.874		 -46.529
-119.874		 -46.529
-119.873		 -46.529
-119.873		 -46.529
-119.873		 -46.529
-119.873		 -46.529
-119.873		 -46.529
-119.873		 -46.529
-119.873		 -46.529
-119.872		 -46.529
-119.872		 -46.529
-119.872		 -46.529
-119.872		 -46.529
-119.872		 -46.529
-119.872		 -46.529
-119.871		 -46.529
-119.871		 -46.529
-119.871		 -46.529
-119.871		 -46.529
-119.871		 -46.529
-119.871		 -46.529
-119.870		 -46.529
-119.870		 -46.529
-119.870		 -46.529
-119.870		 -46.529
-119.870		 -46.529
-119.870		 -46.529
-119.870		 -46.529
-119.869		 -46.529
References X 		 References Y
-119.874		 -46.528
-116.851		 -49.148
-115.340		 -50.458
-113.829		 -51.769
-112.318		 -53.079
-110.807		 -54.389
-109.299		 -55.689
-107.785		 -56.982
-106.264		 -58.267
-104.737		 -59.545
-103.203		 -60.815
-101.663		 -62.077
-100.116		 -63.331
-98.564		 -64.577
-97.005		 -65.816
-95.439		 -67.047
-93.868		 -68.269
-92.290		 -69.484
-90.706		 -70.691
-89.117		 -71.890
-87.521		 -73.081
-85.919		 -74.264
-84.311		 -75.438
-82.697		 -76.605
-81.078		 -77.763
-79.453		 -78.913
-77.821		 -80.055
-76.185		 -81.189
-74.542		 -82.315
-72.894		 -83.432
0.000		 0.000
=============================

 =============================
 ============ MPC ============
 =============================

        MPC VALUES
---------------------------
 Torque cmd:  0.082
 Status:      0
 Prep status: 0

      TIME VALUES
---------------------------
 Loop time [ms]:  10.067
 Exec time [ms]:  1.913

      VEHICLE DATA
---------------------------
Location: (-119.874, -46.529, 0.102)
Rotation: (-0.000, -0.000, -0.714)
Velocity: (0.003, -0.000, -0.000)
Acceleration: (0.070, -0.019, 9.730)
Angular Velocity: (-0.000, 0.000, -0.000)
Lateral Error: -0.001
Heading Error: -0.000
Steer Wheel Angle: 0.034
Steer Wheel Angular Velocity: 0.000
Steer Wheel Torque Control: 0.082


      ACADO COSAS
---------------------------


Differential variables:
[
	-1.198741e+02	-4.652852e+01	-7.143308e-01	3.146195e-03	-5.297435e-05	-3.032254e-04	-9.958316e-06	-9.849543e-04	3.471679e-02	3.472318e-02	8.192602e-02
	-1.198739e+02	-4.652852e+01	-7.143309e-01	3.146195e-03	-5.281373e-05	-3.026655e-04	-1.002547e-05	-9.850651e-04	3.733385e-02	6.091416e-02	8.173280e-02
	-1.198738e+02	-4.652852e+01	-7.143309e-01	3.146195e-03	-5.272458e-05	-3.021497e-04	-1.009861e-05	-9.851858e-04	4.108980e-02	8.051057e-02	8.119628e-02
	-1.198736e+02	-4.652852e+01	-7.143310e-01	3.146195e-03	-5.268891e-05	-3.016671e-04	-1.017960e-05	-9.853194e-04	4.569312e-02	9.499222e-02	8.035756e-02
	-1.198735e+02	-4.652852e+01	-7.143311e-01	3.146195e-03	-5.269276e-05	-3.012091e-04	-1.026978e-05	-9.854682e-04	5.091736e-02	1.054928e-01	7.925593e-02
	-1.198733e+02	-4.652852e+01	-7.143312e-01	3.146195e-03	-5.272525e-05	-3.007693e-04	-1.037016e-05	-9.856338e-04	5.658598e-02	1.128843e-01	7.792893e-02
	-1.198731e+02	-4.652852e+01	-7.143313e-01	3.146195e-03	-5.277785e-05	-3.003423e-04	-1.048143e-05	-9.858174e-04	6.256090e-02	1.178403e-01	7.641235e-02
	-1.198730e+02	-4.652852e+01	-7.143314e-01	3.146195e-03	-5.284389e-05	-2.999243e-04	-1.060406e-05	-9.860198e-04	6.873384e-02	1.208842e-01	7.474019e-02
	-1.198728e+02	-4.652852e+01	-7.143316e-01	3.146195e-03	-5.291811e-05	-2.995120e-04	-1.073833e-05	-9.862413e-04	7.501974e-02	1.224252e-01	7.294473e-02
	-1.198727e+02	-4.652852e+01	-7.143317e-01	3.146195e-03	-5.299640e-05	-2.991028e-04	-1.088440e-05	-9.864823e-04	8.135174e-02	1.227857e-01	7.105648e-02
	-1.198725e+02	-4.652852e+01	-7.143319e-01	3.146195e-03	-5.307551e-05	-2.986949e-04	-1.104229e-05	-9.867428e-04	8.767741e-02	1.222216e-01	6.910418e-02
	-1.198723e+02	-4.652852e+01	-7.143321e-01	3.146195e-03	-5.315291e-05	-2.982867e-04	-1.121197e-05	-9.870228e-04	9.395578e-02	1.209384e-01	6.711479e-02
	-1.198722e+02	-4.652852e+01	-7.143322e-01	3.146195e-03	-5.322665e-05	-2.978770e-04	-1.139330e-05	-9.873220e-04	1.001552e-01	1.191022e-01	6.511350e-02
	-1.198720e+02	-4.652852e+01	-7.143324e-01	3.146195e-03	-5.329523e-05	-2.974649e-04	-1.158612e-05	-9.876401e-04	1.062514e-01	1.168489e-01	6.312367e-02
	-1.198719e+02	-4.652852e+01	-7.143326e-01	3.146195e-03	-5.335754e-05	-2.970497e-04	-1.179022e-05	-9.879769e-04	1.122265e-01	1.142909e-01	6.116682e-02
	-1.198717e+02	-4.652852e+01	-7.143328e-01	3.146195e-03	-5.341279e-05	-2.966310e-04	-1.200535e-05	-9.883319e-04	1.180677e-01	1.115219e-01	5.926265e-02
	-1.198716e+02	-4.652852e+01	-7.143331e-01	3.146195e-03	-5.346044e-05	-2.962085e-04	-1.223127e-05	-9.887046e-04	1.237663e-01	1.086208e-01	5.742895e-02
	-1.198714e+02	-4.652852e+01	-7.143333e-01	3.146195e-03	-5.350019e-05	-2.957818e-04	-1.246770e-05	-9.890947e-04	1.293175e-01	1.056543e-01	5.568164e-02
	-1.198712e+02	-4.652852e+01	-7.143336e-01	3.146195e-03	-5.353192e-05	-2.953510e-04	-1.271435e-05	-9.895017e-04	1.347195e-01	1.026794e-01	5.403472e-02
	-1.198711e+02	-4.652852e+01	-7.143338e-01	3.146195e-03	-5.355568e-05	-2.949162e-04	-1.297096e-05	-9.899251e-04	1.399731e-01	9.974463e-02	5.250026e-02
	-1.198709e+02	-4.652852e+01	-7.143341e-01	3.146195e-03	-5.357166e-05	-2.944773e-04	-1.323725e-05	-9.903645e-04	1.450814e-01	9.689154e-02	5.108840e-02
	-1.198708e+02	-4.652852e+01	-7.143344e-01	3.146195e-03	-5.358015e-05	-2.940346e-04	-1.351295e-05	-9.908194e-04	1.500493e-01	9.415540e-02	4.980736e-02
	-1.198706e+02	-4.652853e+01	-7.143346e-01	3.146195e-03	-5.358156e-05	-2.935884e-04	-1.379781e-05	-9.912894e-04	1.548835e-01	9.156599e-02	4.866347e-02
	-1.198705e+02	-4.652853e+01	-7.143349e-01	3.146195e-03	-5.357638e-05	-2.931388e-04	-1.409158e-05	-9.917741e-04	1.595919e-01	8.914812e-02	4.766122e-02
	-1.198703e+02	-4.652853e+01	-7.143352e-01	3.146195e-03	-5.356516e-05	-2.926864e-04	-1.439403e-05	-9.922731e-04	1.641836e-01	8.692207e-02	4.680337e-02
	-1.198701e+02	-4.652853e+01	-7.143355e-01	3.146195e-03	-5.354853e-05	-2.922314e-04	-1.470496e-05	-9.927862e-04	1.686687e-01	8.490398e-02	4.609110e-02
	-1.198700e+02	-4.652853e+01	-7.143359e-01	3.146195e-03	-5.352713e-05	-2.917742e-04	-1.502418e-05	-9.933129e-04	1.730578e-01	8.310625e-02	4.552423e-02
	-1.198698e+02	-4.652853e+01	-7.143362e-01	3.146195e-03	-5.350165e-05	-2.913152e-04	-1.535152e-05	-9.938530e-04	1.773623e-01	8.153789e-02	4.510153e-02
	-1.198697e+02	-4.652853e+01	-7.143365e-01	3.146195e-03	-5.347281e-05	-2.908550e-04	-1.568683e-05	-9.944063e-04	1.815937e-01	8.020506e-02	4.482120e-02
	-1.198695e+02	-4.652853e+01	-7.143369e-01	3.146195e-03	-5.344135e-05	-2.903938e-04	-1.602999e-05	-9.949725e-04	1.857639e-01	7.911161e-02	4.468151e-02
	-1.198694e+02	-4.652863e+01	-7.143383e-01	3.146135e-03	-5.374351e-05	-2.887221e-04	-1.748631e-05	-9.973780e-04	1.898573e-01	7.839184e-02	4.454181e-02
]


Control variables:
[
	-7.729013e-03
	-2.146070e-02
	-3.354897e-02
	-4.406511e-02
	-5.307982e-02
	-6.066349e-02
	-6.688628e-02
	-7.181837e-02
	-7.553007e-02
	-7.809202e-02
	-7.957532e-02
	-8.005164e-02
	-7.959341e-02
	-7.827383e-02
	-7.616699e-02
	-7.334786e-02
	-6.989227e-02
	-6.587676e-02
	-6.137842e-02
	-5.647445e-02
	-5.124168e-02
	-4.575575e-02
	-4.008999e-02
	-3.431383e-02
	-2.849067e-02
	-2.267493e-02
	-1.690804e-02
	-1.121313e-02
	-5.587786e-03
	-5.587786e-03
]

Predictions X 		 Predictions Y
-119.874		 -46.529
-119.874		 -46.529
-119.874		 -46.529
-119.874		 -46.529
-119.873		 -46.529
-119.873		 -46.529
-119.873		 -46.529
-119.873		 -46.529
-119.873		 -46.529
-119.873		 -46.529
-119.873		 -46.529
-119.872		 -46.529
-119.872		 -46.529
-119.872		 -46.529
-119.872		 -46.529
-119.872		 -46.529
-119.872		 -46.529
-119.871		 -46.529
-119.871		 -46.529
-119.871		 -46.529
-119.871		 -46.529
-119.871		 -46.529
-119.871		 -46.529
-119.870		 -46.529
-119.870		 -46.529
-119.870		 -46.529
-119.870		 -46.529
-119.870		 -46.529
-119.870		 -46.529
-119.870		 -46.529
-119.869		 -46.529
References X 		 References Y
-119.874		 -46.528
-116.851		 -49.148
-115.340		 -50.458
-113.829		 -51.769
-112.318		 -53.079
-110.807		 -54.389
-109.299		 -55.689
-107.785		 -56.982
-106.264		 -58.267
-104.737		 -59.545
-103.203		 -60.815
-101.663		 -62.077
-100.116		 -63.331
-98.564		 -64.577
-97.005		 -65.816
-95.439		 -67.047
-93.868		 -68.269
-92.290		 -69.484
-90.706		 -70.691
-89.117		 -71.890
-87.521		 -73.081
-85.919		 -74.264
-84.311		 -75.438
-82.697		 -76.605
-81.078		 -77.763
-79.453		 -78.913
-77.821		 -80.055
-76.185		 -81.189
-74.542		 -82.315
-72.894		 -83.432
0.000		 0.000
=============================

 =============================
 ============ MPC ============
 =============================

        MPC VALUES
---------------------------
 Torque cmd:  0.082
 Status:      0
 Prep status: 0

      TIME VALUES
---------------------------
 Loop time [ms]:  10.063
 Exec time [ms]:  1.279

      VEHICLE DATA
---------------------------
Location: (-119.871, -46.531, 0.102)
Rotation: (-0.000, 0.000, -0.714)
Velocity: (0.361, 0.001, 0.002)
Acceleration: (16.535, 0.042, 9.837)
Angular Velocity: (0.000, -0.008, 0.000)
Lateral Error: -0.001
Heading Error: -0.000
Steer Wheel Angle: 0.036
Steer Wheel Angular Velocity: 1.000
Steer Wheel Torque Control: 0.082


      ACADO COSAS
---------------------------


Differential variables:
[
	-1.198532e+02	-4.653110e+01	-7.143271e-01	3.612714e-01	7.633176e-04	4.260249e-04	-6.215683e-06	-9.741479e-04	7.951058e-02	7.930939e-01	8.192599e-02
	-1.198351e+02	-4.653110e+01	-7.143272e-01	3.612714e-01	7.589055e-04	4.235592e-04	-6.397792e-06	-9.744484e-04	1.144934e-01	6.370116e-01	8.173298e-02
	-1.198171e+02	-4.653110e+01	-7.143275e-01	3.612714e-01	7.549200e-04	4.213512e-04	-6.638671e-06	-9.748458e-04	1.426626e-01	5.191095e-01	8.119666e-02
	-1.197990e+02	-4.653110e+01	-7.143278e-01	3.612714e-01	7.512586e-04	4.193389e-04	-6.927198e-06	-9.753219e-04	1.656806e-01	4.298660e-01	8.035811e-02
	-1.197809e+02	-4.653110e+01	-7.143281e-01	3.612714e-01	7.478444e-04	4.174756e-04	-7.254957e-06	-9.758627e-04	1.847949e-01	3.621164e-01	7.925664e-02
	-1.197629e+02	-4.653110e+01	-7.143285e-01	3.612714e-01	7.446198e-04	4.157264e-04	-7.615559e-06	-9.764577e-04	2.009407e-01	3.104732e-01	7.792978e-02
	-1.197448e+02	-4.653110e+01	-7.143288e-01	3.612714e-01	7.415414e-04	4.140651e-04	-8.004136e-06	-9.770988e-04	2.148185e-01	2.708886e-01	7.641332e-02
	-1.197267e+02	-4.653110e+01	-7.143293e-01	3.612714e-01	7.385771e-04	4.124721e-04	-8.416959e-06	-9.777800e-04	2.269525e-01	2.403248e-01	7.474126e-02
	-1.197087e+02	-4.653110e+01	-7.143297e-01	3.612714e-01	7.357025e-04	4.109327e-04	-8.851149e-06	-9.784964e-04	2.377348e-01	2.165046e-01	7.294589e-02
	-1.196906e+02	-4.653110e+01	-7.143301e-01	3.612714e-01	7.328996e-04	4.094360e-04	-9.304465e-06	-9.792443e-04	2.474584e-01	1.977242e-01	7.105772e-02
	-1.196725e+02	-4.653110e+01	-7.143306e-01	3.612714e-01	7.301549e-04	4.079739e-04	-9.775140e-06	-9.800209e-04	2.563423e-01	1.827113e-01	6.910548e-02
	-1.196545e+02	-4.653110e+01	-7.143311e-01	3.612714e-01	7.274582e-04	4.065400e-04	-1.026176e-05	-9.808239e-04	2.645505e-01	1.705182e-01	6.711614e-02
	-1.196364e+02	-4.653111e+01	-7.143316e-01	3.612714e-01	7.248021e-04	4.051300e-04	-1.076319e-05	-9.816512e-04	2.722055e-01	1.604418e-01	6.511489e-02
	-1.196184e+02	-4.653111e+01	-7.143321e-01	3.612714e-01	7.221806e-04	4.037402e-04	-1.127849e-05	-9.825015e-04	2.793997e-01	1.519620e-01	6.312509e-02
	-1.196003e+02	-4.653111e+01	-7.143326e-01	3.612714e-01	7.195897e-04	4.023682e-04	-1.180685e-05	-9.833732e-04	2.862030e-01	1.446963e-01	6.116826e-02
	-1.195822e+02	-4.653111e+01	-7.143332e-01	3.612714e-01	7.170258e-04	4.010118e-04	-1.234760e-05	-9.842655e-04	2.926689e-01	1.383654e-01	5.926410e-02
	-1.195642e+02	-4.653111e+01	-7.143337e-01	3.612714e-01	7.144865e-04	3.996695e-04	-1.290014e-05	-9.851772e-04	2.988388e-01	1.327666e-01	5.743041e-02
	-1.195461e+02	-4.653111e+01	-7.143343e-01	3.612714e-01	7.119696e-04	3.983402e-04	-1.346397e-05	-9.861075e-04	3.047456e-01	1.277543e-01	5.568310e-02
	-1.195280e+02	-4.653111e+01	-7.143349e-01	3.612714e-01	7.094737e-04	3.970227e-04	-1.403861e-05	-9.870556e-04	3.104158e-01	1.232254e-01	5.403618e-02
	-1.195100e+02	-4.653111e+01	-7.143355e-01	3.612714e-01	7.069971e-04	3.957163e-04	-1.462363e-05	-9.880209e-04	3.158717e-01	1.191076e-01	5.250171e-02
	-1.194919e+02	-4.653111e+01	-7.143361e-01	3.612714e-01	7.045389e-04	3.944201e-04	-1.521867e-05	-9.890027e-04	3.211326e-01	1.153513e-01	5.108984e-02
	-1.194738e+02	-4.653111e+01	-7.143367e-01	3.612714e-01	7.020978e-04	3.931337e-04	-1.582337e-05	-9.900005e-04	3.262157e-01	1.119230e-01	4.980878e-02
	-1.194558e+02	-4.653111e+01	-7.143373e-01	3.612714e-01	6.996728e-04	3.918563e-04	-1.643741e-05	-9.910136e-04	3.311368e-01	1.088008e-01	4.866487e-02
	-1.194377e+02	-4.653112e+01	-7.143379e-01	3.612714e-01	6.972631e-04	3.905874e-04	-1.706050e-05	-9.920417e-04	3.359107e-01	1.059703e-01	4.766260e-02
	-1.194197e+02	-4.653112e+01	-7.143385e-01	3.612714e-01	6.948678e-04	3.893265e-04	-1.769239e-05	-9.930843e-04	3.405520e-01	1.034222e-01	4.680474e-02
	-1.194016e+02	-4.653112e+01	-7.143392e-01	3.612714e-01	6.924859e-04	3.880730e-04	-1.833283e-05	-9.941411e-04	3.450744e-01	1.011506e-01	4.609246e-02
	-1.193835e+02	-4.653112e+01	-7.143398e-01	3.612714e-01	6.901166e-04	3.868264e-04	-1.898163e-05	-9.952116e-04	3.494918e-01	9.915089e-02	4.552557e-02
	-1.193655e+02	-4.653112e+01	-7.143405e-01	3.612714e-01	6.877590e-04	3.855862e-04	-1.963859e-05	-9.962956e-04	3.538175e-01	9.741959e-02	4.510286e-02
	-1.193474e+02	-4.653112e+01	-7.143411e-01	3.612714e-01	6.854124e-04	3.843519e-04	-2.030356e-05	-9.973928e-04	3.580650e-01	9.595324e-02	4.482252e-02
	-1.193293e+02	-4.653112e+01	-7.143418e-01	3.612714e-01	6.830758e-04	3.831230e-04	-2.097640e-05	-9.985029e-04	3.622474e-01	9.474851e-02	4.468282e-02
	-1.193160e+02	-4.654324e+01	-7.145764e-01	3.610534e-01	-5.164765e-03	-2.883596e-03	-2.555882e-04	-1.384765e-03	3.605606e-01	2.914137e-02	4.454312e-02
]


Control variables:
[
	-7.720253e-03
	-2.145284e-02
	-3.354196e-02
	-4.405888e-02
	-5.307434e-02
	-6.065869e-02
	-6.688213e-02
	-7.181482e-02
	-7.552708e-02
	-7.808954e-02
	-7.957330e-02
	-8.005006e-02
	-7.959222e-02
	-7.827299e-02
	-7.616647e-02
	-7.334762e-02
	-6.989227e-02
	-6.587697e-02
	-6.137879e-02
	-5.647495e-02
	-5.124228e-02
	-4.575641e-02
	-4.009067e-02
	-3.431450e-02
	-2.849130e-02
	-2.267547e-02
	-1.690848e-02
	-1.121345e-02
	-5.587948e-03
	-5.587948e-03
]

Predictions X 		 Predictions Y
-119.853		 -46.531
-119.835		 -46.531
-119.817		 -46.531
-119.799		 -46.531
-119.781		 -46.531
-119.763		 -46.531
-119.745		 -46.531
-119.727		 -46.531
-119.709		 -46.531
-119.691		 -46.531
-119.673		 -46.531
-119.654		 -46.531
-119.636		 -46.531
-119.618		 -46.531
-119.600		 -46.531
-119.582		 -46.531
-119.564		 -46.531
-119.546		 -46.531
-119.528		 -46.531
-119.510		 -46.531
-119.492		 -46.531
-119.474		 -46.531
-119.456		 -46.531
-119.438		 -46.531
-119.420		 -46.531
-119.402		 -46.531
-119.384		 -46.531
-119.365		 -46.531
-119.347		 -46.531
-119.329		 -46.531
-119.316		 -46.543
References X 		 References Y
-119.871		 -46.530
-116.848		 -49.151
-115.337		 -50.461
-113.826		 -51.771
-112.315		 -53.081
-110.804		 -54.391
-109.296		 -55.692
-107.782		 -56.985
-106.261		 -58.270
-104.734		 -59.547
-103.200		 -60.817
-101.660		 -62.079
-100.113		 -63.333
-98.561		 -64.580
-97.001		 -65.818
-95.436		 -67.049
-93.865		 -68.272
-92.287		 -69.487
-90.703		 -70.693
-89.113		 -71.892
-87.518		 -73.083
-85.916		 -74.266
-84.308		 -75.440
-82.694		 -76.607
-81.075		 -77.765
-79.449		 -78.916
-77.818		 -80.058
-76.181		 -81.191
-74.539		 -82.317
-72.891		 -83.434
0.000		 0.000
=============================

 =============================
 ============ MPC ============
 =============================

        MPC VALUES
---------------------------
 Torque cmd:  1.082
 Status:      0
 Prep status: 0

      TIME VALUES
---------------------------
 Loop time [ms]:  10.134
 Exec time [ms]:  1.878

      VEHICLE DATA
---------------------------
Location: (-119.857, -46.543, 0.102)
Rotation: (-0.000, 0.000, -0.714)
Velocity: (0.825, 0.002, -0.000)
Acceleration: (18.637, -0.122, 9.739)
Angular Velocity: (0.000, -0.011, 0.001)
Lateral Error: -0.001
Heading Error: 0.000
Steer Wheel Angle: 0.036
Steer Wheel Angular Velocity: 1.000
Steer Wheel Torque Control: 0.082


      ACADO COSAS
---------------------------


Differential variables:
[
	-1.198208e+02	-4.614497e+01	-4.695757e-01	5.918282e-01	7.691242e+00	4.279593e+00	2.447452e-01	3.971955e-01	6.141647e+00	9.346532e+01	5.817330e-01
	-1.198458e+02	-4.587673e+01	-3.057929e-01	9.277406e-01	5.966943e+00	3.235887e+00	4.085279e-01	6.643623e-01	8.673167e+00	4.827064e+01	1.081733e+00
	-1.198636e+02	-4.573233e+01	-2.071734e-01	1.069942e+00	2.846320e+00	1.762075e+00	5.071475e-01	8.093400e-01	8.775233e+00	-2.077614e+00	1.581733e+00
	-1.198701e+02	-4.572204e+01	-1.982939e-01	1.099645e+00	-5.334217e-01	6.927937e-01	5.160270e-01	8.201826e-01	6.714832e+00	-3.739903e+01	2.081733e+00
	-1.198785e+02	-4.577819e+01	-3.916285e-01	-1.071530e+00	-1.539150e+00	-8.251230e+00	3.226923e-01	7.656896e-01	2.465728e+00	-1.236089e+02	2.581733e+00
	-1.199415e+02	-4.583680e+01	-8.502314e-01	-1.923671e+00	-1.358754e+00	-5.910121e+00	-1.359105e-01	7.067572e-01	-3.183611e+00	-5.880144e+01	3.081733e+00
	-1.200047e+02	-4.584920e+01	-1.151945e+00	-2.478905e+00	1.787956e-01	-2.119738e+00	-4.376238e-01	6.946478e-01	-5.245939e+00	1.702778e+01	2.714965e+00
	-1.200785e+02	-4.577780e+01	-1.243036e+00	-2.686109e+00	1.883515e+00	2.418049e+00	-5.287148e-01	7.663605e-01	-3.720750e+00	8.285850e+01	2.214965e+00
	-1.201703e+02	-4.564096e+01	-1.103194e+00	-2.497708e+00	2.748181e+00	7.070921e+00	-3.888734e-01	9.035098e-01	5.343206e-01	1.253959e+02	1.714965e+00
	-1.202804e+02	-4.549935e+01	-7.455365e-01	-1.894864e+00	2.090165e+00	1.112681e+01	-3.121569e-02	1.045449e+00	6.135964e+00	1.367924e+02	1.214965e+00
	-1.203995e+02	-4.543633e+01	-2.187763e-01	-9.039324e-01	-3.243247e-01	1.385844e+01	4.955445e-01	1.108802e+00	1.146059e+01	1.150477e+02	7.149649e-01
	-1.205092e+02	-4.553443e+01	3.944576e-01	3.900313e-01	-4.240930e+00	1.461757e+01	1.108778e+00	1.011046e+00	1.493990e+01	6.412048e+01	1.214965e+00
	-1.205846e+02	-4.585194e+01	9.843956e-01	1.838557e+00	-8.963874e+00	1.294857e+01	1.698716e+00	6.938867e-01	1.534000e+01	-7.018630e+00	1.714965e+00
	-1.205991e+02	-4.640382e+01	1.426527e+00	3.234472e+00	-1.347734e+01	8.704525e+00	2.140848e+00	1.423629e-01	1.197332e+01	-8.568853e+01	2.214965e+00
	-1.205305e+02	-4.715013e+01	1.599263e+00	4.332117e+00	-1.662403e+01	2.143348e+00	2.313583e+00	-6.035830e-01	4.851659e+00	-1.567975e+02	2.714965e+00
	-1.203671e+02	-4.799441e+01	1.405187e+00	4.882303e+00	-1.732220e+01	-6.024135e+00	2.119508e+00	-1.447482e+00	-5.246715e+00	-2.048875e+02	3.214965e+00
	-1.201127e+02	-4.879321e+01	7.929249e-01	4.677589e+00	-1.479312e+01	-1.465805e+01	1.507246e+00	-2.245905e+00	-1.682109e+01	-2.165293e+02	3.714965e+00
	-1.197898e+02	-4.937659e+01	-2.242965e-01	3.601023e+00	-8.764948e+00	-2.229949e+01	4.900244e-01	-2.828896e+00	-2.781491e+01	-1.828258e+02	4.214965e+00
	-1.194390e+02	-4.957725e+01	-1.557675e+00	1.669272e+00	3.838086e-01	-2.736660e+01	-8.433546e-01	-3.029161e+00	-3.590098e+01	-1.016649e+02	4.714965e+00
	-1.191155e+02	-4.926462e+01	-3.043303e+00	-9.399547e-01	1.157508e+01	-2.841937e+01	-2.328983e+00	-2.716122e+00	-3.886272e+01	2.066043e+01	5.000000e+00
	-1.188811e+02	-4.837835e+01	-4.456618e+00	-3.885452e+00	2.310217e+01	-2.445769e+01	-3.742297e+00	-1.829446e+00	-3.502712e+01	1.690029e+02	5.000000e+00
	-1.187941e+02	-4.695505e+01	-5.541254e+00	-6.690438e+00	3.283054e+01	-1.520278e+01	-4.826933e+00	-4.057270e-01	-2.367918e+01	3.204941e+02	5.000000e+00
	-1.188971e+02	-4.514183e+01	-6.050070e+00	-8.802095e+00	3.851606e+01	-1.305269e+00	-5.335749e+00	1.407918e+00	-5.380600e+00	4.471380e+02	5.000000e+00
	-1.192058e+02	-4.319178e+01	-5.793313e+00	-9.679320e+00	3.820665e+01	1.557627e+01	-5.078992e+00	3.358393e+00	1.787630e+01	5.198216e+02	5.000000e+00
	-1.196998e+02	-4.143846e+01	-4.686383e+00	-8.897729e+00	3.067165e+01	3.287076e+01	-3.972062e+00	5.112142e+00	4.274563e+01	5.134893e+02	5.000000e+00
	-1.203190e+02	-4.024986e+01	-2.788042e+00	-6.255308e+00	1.578519e+01	4.738408e+01	-2.073721e+00	6.301187e+00	6.487335e+01	4.126786e+02	5.000000e+00
	-1.209667e+02	-3.996616e+01	-3.197226e-01	-1.858583e+00	-5.217545e+00	5.576981e+01	3.945983e-01	6.585330e+00	7.950443e+01	2.164571e+02	5.000000e+00
	-1.215200e+02	-4.082972e+01	2.341810e+00	3.831472e+00	-2.968643e+01	5.513064e+01	3.056131e+00	5.722221e+00	8.229443e+01	-5.830707e+01	5.000000e+00
	-1.218475e+02	-4.291867e+01	4.702819e+00	1.001128e+01	-5.375791e+01	4.366380e+01	5.417139e+00	3.633736e+00	7.021652e+01	-3.763298e+02	5.000000e+00
	-1.218324e+02	-4.609751e+01	6.221321e+00	1.561449e+01	-7.282855e+01	2.123661e+01	6.935642e+00	4.553593e-01	4.241323e+01	-6.866529e+02	4.991185e+00
	-1.211112e+02	-4.947975e+01	7.554940e+00	-6.352281e+01	-3.786594e+01	3.000793e+01	8.269261e+00	-1.627567e+00	7.224152e+00	-6.793645e+02	4.982370e+00
]


Control variables:
[
	2.000000e+01
	2.000000e+01
	2.000000e+01
	2.000000e+01
	2.000000e+01
	-1.467072e+01
	-2.000000e+01
	-2.000000e+01
	-2.000000e+01
	-2.000000e+01
	2.000000e+01
	2.000000e+01
	2.000000e+01
	2.000000e+01
	2.000000e+01
	2.000000e+01
	2.000000e+01
	2.000000e+01
	1.140141e+01
	8.520847e-11
	-1.398698e-12
	-5.375984e-11
	-1.014054e-11
	3.420203e-11
	2.238231e-11
	1.513497e-11
	-4.695559e-11
	4.981056e-11
	-3.525940e-01
	-3.525940e-01
]

Predictions X 		 Predictions Y
-119.821		 -46.145
-119.846		 -45.877
-119.864		 -45.732
-119.870		 -45.722
-119.878		 -45.778
-119.941		 -45.837
-120.005		 -45.849
-120.078		 -45.778
-120.170		 -45.641
-120.280		 -45.499
-120.400		 -45.436
-120.509		 -45.534
-120.585		 -45.852
-120.599		 -46.404
-120.530		 -47.150
-120.367		 -47.994
-120.113		 -48.793
-119.790		 -49.377
-119.439		 -49.577
-119.115		 -49.265
-118.881		 -48.378
-118.794		 -46.955
-118.897		 -45.142
-119.206		 -43.192
-119.700		 -41.438
-120.319		 -40.250
-120.967		 -39.966
-121.520		 -40.830
-121.848		 -42.919
-121.832		 -46.098
-121.111		 -49.480
References X 		 References Y
-119.857		 -46.542
-116.835		 -49.163
-115.324		 -50.473
-113.812		 -51.783
-112.301		 -53.093
-110.791		 -54.403
-109.283		 -55.704
-107.768		 -56.997
-106.247		 -58.282
-104.720		 -59.559
-103.186		 -60.829
-101.646		 -62.091
-100.099		 -63.345
-98.546		 -64.591
-96.987		 -65.830
-95.422		 -67.060
-93.850		 -68.283
-92.273		 -69.498
-90.689		 -70.704
-89.099		 -71.903
-87.503		 -73.094
-85.901		 -74.277
-84.293		 -75.451
-82.679		 -76.618
-81.060		 -77.776
-79.434		 -78.926
-77.803		 -80.068
-76.166		 -81.202
-74.524		 -82.327
-72.875		 -83.444
0.000		 0.000
=============================

 =============================
 ============ MPC ============
 =============================

        MPC VALUES
---------------------------
 Torque cmd:  1.082
 Status:      -1
 Prep status: 0

      TIME VALUES
---------------------------
 Loop time [ms]:  11.061
 Exec time [ms]:  1.689

      VEHICLE DATA
---------------------------
Location: (-119.857, -46.543, 0.102)
Rotation: (-0.000, 0.000, -0.714)
Velocity: (0.825, 0.002, -0.000)
Acceleration: (18.637, -0.122, 9.739)
Angular Velocity: (0.000, -0.011, 0.001)
Lateral Error: -0.001
Heading Error: 0.000
Steer Wheel Angle: 0.036
Steer Wheel Angular Velocity: 1.000
Steer Wheel Torque Control: 0.082


      ACADO COSAS
---------------------------


Differential variables:
[
	-1.199061e+02	-4.641472e+01	-9.193829e-01	-2.471524e+00	2.324458e+00	-9.102130e+00	-2.050620e-01	3.887177e-02	-1.845057e+00	-7.343991e+01	5.817330e-01
	-1.199605e+02	-4.608321e+01	-1.136946e+00	-2.810187e+00	-8.115237e-01	-4.048786e+00	-4.226254e-01	3.796972e-01	-4.790546e-01	-4.802308e+01	1.081733e+00
	-1.215612e+02	-4.618759e+01	-2.224022e+00	9.204068e+00	-2.349849e+01	-2.946534e+01	-1.509701e+00	-1.649833e-01	-2.596957e+01	-5.946611e+02	1.581733e+00
	-1.212639e+02	-3.892851e+01	2.918189e+00	2.540937e+01	3.006736e+02	2.256760e+02	3.632510e+00	7.051552e+00	9.238628e+01	4.885453e+03	2.081733e+00
	-1.205177e+02	-2.541206e+01	1.284051e+01	3.713633e+01	2.397864e+02	1.721849e+02	1.355483e+01	2.056874e+01	2.773041e+02	2.540661e+03	2.581733e+00
	6.278060e+05	-1.602276e+07	-3.719196e+04	-1.189566e+06	5.355956e+06	-2.973224e+06	-3.719124e+04	-1.602209e+07	-1.424062e+04	-1.081883e+06	3.081733e+00
	-1.586800e+08	-4.552037e+07	-1.844432e+05	7.491129e+09	1.755540e+09	-2.904344e+06	-1.844425e+05	-4.551934e+07	-1.102963e+05	-3.095899e+06	2.714965e+00
	2.196662e+08	5.409199e+08	-5.874718e+07	6.704091e+09	1.120542e+10	-6.246467e+09	-5.874718e+07	5.409210e+08	3.722998e+09	-2.913341e+09	2.214965e+00
	5.217673e+08	5.112331e+08	-5.569103e+08	9.092023e+09	-8.269284e+09	-1.195382e+10	-5.569103e+08	5.112341e+08	-3.617696e+09	-2.167835e+11	1.714965e+00
	-3.202566e+12	-3.043923e+12	-1.919051e+11	-1.767650e+12	2.141519e+13	-1.546171e+13	-1.919051e+11	-3.043923e+12	6.929106e+10	1.740474e+12	1.214965e+00
	3.899096e+13	1.095018e+13	-9.598085e+11	-1.981534e+15	-7.285538e+14	-1.519751e+13	-9.598085e+11	1.095018e+13	-1.459096e+11	-1.218925e+13	7.149649e-01
	-6.079749e+13	-3.477270e+13	-5.761012e+13	-1.947192e+15	-1.282757e+15	-2.497305e+14	-5.761012e+13	-3.477270e+13	-6.596899e+14	-5.096956e+15	1.214965e+00
	-2.430660e+14	-6.648399e+14	-4.469252e+14	-5.569450e+15	-5.787030e+16	-3.884111e+16	-4.469252e+14	-6.648399e+14	-1.047661e+16	-9.580244e+17	1.714965e+00
	-2.510269e+13	-3.620870e+15	-2.734140e+15	-1.491772e+16	-1.042485e+17	-4.988089e+16	-2.734140e+15	-3.620870e+15	-6.160718e+16	-9.598134e+17	2.214965e+00
	-2.024991e+18	2.230246e+18	-3.083576e+16	2.315784e+18	2.741889e+18	-6.026897e+17	-3.083576e+16	2.230246e+18	-9.378775e+16	-3.176097e+17	2.714965e+00
	-1.905257e+18	2.353497e+18	-5.205764e+16	2.215168e+18	2.384207e+18	-2.748636e+17	-5.205764e+16	2.353497e+18	-9.103979e+16	-9.039575e+17	3.214965e+00
	2.941669e+140	-8.214515e+140	2.791472e+79	-2.762408e+83	2.555112e+83	2.233177e+81	-3.710042e+59	2.390168e+97	-6.052511e+56	-4.842009e+58	3.714965e+00
	nan	nan	nan	nan	nan	nan	nan	nan	nan	nan	nan
	nan	nan	nan	nan	nan	nan	nan	nan	nan	nan	nan
	nan	nan	nan	nan	nan	nan	nan	nan	nan	nan	nan
	nan	nan	nan	nan	nan	nan	nan	nan	nan	nan	nan
	nan	nan	nan	nan	nan	nan	nan	nan	nan	nan	nan
	nan	nan	nan	nan	nan	nan	nan	nan	nan	nan	nan
	nan	nan	nan	nan	nan	nan	nan	nan	nan	nan	nan
	nan	nan	nan	nan	nan	nan	nan	nan	nan	nan	nan
	nan	nan	nan	nan	nan	nan	nan	nan	nan	nan	nan
	nan	nan	nan	nan	nan	nan	nan	nan	nan	nan	nan
	nan	nan	nan	nan	nan	nan	nan	nan	nan	nan	nan
	nan	nan	nan	nan	nan	nan	nan	nan	nan	nan	nan
	nan	nan	nan	nan	nan	nan	nan	nan	nan	nan	nan
	-nan	-nan	-nan	-nan	-nan	-nan	-nan	-nan	-nan	-nan	-nan
]


Control variables:
[
	2.000000e+01
	2.000000e+01
	2.000000e+01
	2.000000e+01
	2.000000e+01
	-1.467072e+01
	-2.000000e+01
	-2.000000e+01
	-2.000000e+01
	-2.000000e+01
	2.000000e+01
	2.000000e+01
	2.000000e+01
	2.000000e+01
	2.000000e+01
	2.000000e+01
	2.000000e+01
	2.000000e+01
	1.140141e+01
	8.520847e-11
	-1.398698e-12
	-5.375984e-11
	-1.014054e-11
	3.420203e-11
	2.238231e-11
	1.513497e-11
	-4.695559e-11
	4.981056e-11
	-3.525940e-01
	-3.525940e-01
]

Predictions X 		 Predictions Y
-119.906		 -46.415
-119.960		 -46.083
-121.561		 -46.188
-121.264		 -38.929
-120.518		 -25.412
627806.062		 -16022755.000
-158680048.000		 -45520368.000
219666208.000		 540919936.000
521767328.000		 511233056.000
-3202565537792.000		 -3043922804736.000
38990958821376.000		 10950183747584.000
-60797489250304.000		 -34772696956928.000
-243066023706624.000		 -664839932346368.000
-25102693433344.000		 -3620870299844608.000
-2024990630962266112.000		 2230245674929094656.000
-1905256975793389568.000		 2353496667795226624.000
inf		 -inf
nan		 nan
nan		 nan
nan		 nan
nan		 nan
nan		 nan
nan		 nan
nan		 nan
nan		 nan
nan		 nan
nan		 nan
nan		 nan
nan		 nan
nan		 nan
-nan		 -nan
References X 		 References Y
-119.857		 -46.542
-116.835		 -49.163
-115.324		 -50.473
-113.812		 -51.783
-112.301		 -53.093
-110.791		 -54.403
-109.283		 -55.704
-107.768		 -56.997
-106.247		 -58.282
-104.720		 -59.559
-103.186		 -60.829
-101.646		 -62.091
-100.099		 -63.345
-98.546		 -64.591
-96.987		 -65.830
-95.422		 -67.060
-93.850		 -68.283
-92.273		 -69.498
-90.689		 -70.704
-89.099		 -71.903
-87.503		 -73.094
-85.901		 -74.277
-84.293		 -75.451
-82.679		 -76.618
-81.060		 -77.776
-79.434		 -78.926
-77.803		 -80.068
-76.166		 -81.202
-74.524		 -82.327
-72.875		 -83.444
0.000		 0.000
=============================

 =============================
 ============ MPC ============
 =============================

        MPC VALUES
---------------------------
 Torque cmd:  nan
 Status:      -1
 Prep status: 0

      TIME VALUES
---------------------------
 Loop time [ms]:  10.059
 Exec time [ms]:  1.322

      VEHICLE DATA
---------------------------
Location: (-119.857, -46.543, 0.102)
Rotation: (-0.000, 0.000, -0.714)
Velocity: (0.825, 0.002, -0.000)
Acceleration: (15.210, 0.108, 9.588)
Angular Velocity: (0.000, -0.013, 0.001)
Lateral Error: -0.001
Heading Error: 0.000
Steer Wheel Angle: 0.039
Steer Wheel Angular Velocity: 1.000
Steer Wheel Torque Control: 1.082


      ACADO COSAS
---------------------------


Differential variables:
[
	-nan	-nan	-nan	-nan	-nan	-nan	-nan	-nan	-nan	-nan	-nan
	nan	nan	nan	nan	nan	nan	nan	nan	nan	nan	nan
	nan	nan	nan	nan	nan	nan	nan	nan	nan	nan	nan
	nan	nan	nan	nan	nan	nan	nan	nan	nan	nan	nan
	nan	nan	nan	nan	nan	nan	nan	nan	nan	nan	nan
	nan	nan	nan	nan	nan	nan	nan	nan	nan	nan	nan
	nan	nan	nan	nan	nan	nan	nan	nan	nan	nan	nan
	nan	nan	nan	nan	nan	nan	nan	nan	nan	nan	nan
	nan	nan	nan	nan	nan	nan	nan	nan	nan	nan	nan
	nan	nan	nan	nan	nan	nan	nan	nan	nan	nan	nan
	nan	nan	nan	nan	nan	nan	nan	nan	nan	nan	nan
	nan	nan	nan	nan	nan	nan	nan	nan	nan	nan	nan
	nan	nan	nan	nan	nan	nan	nan	nan	nan	nan	nan
	nan	nan	nan	nan	nan	nan	nan	nan	nan	nan	nan
	nan	nan	nan	nan	nan	nan	nan	nan	nan	nan	nan
	nan	nan	nan	nan	nan	nan	nan	nan	nan	nan	nan
	nan	nan	nan	nan	nan	nan	nan	nan	nan	nan	nan
	nan	nan	nan	nan	nan	nan	nan	nan	nan	nan	nan
	nan	nan	nan	nan	nan	nan	nan	nan	nan	nan	nan
	nan	nan	nan	nan	nan	nan	nan	nan	nan	nan	nan
	nan	nan	nan	nan	nan	nan	nan	nan	nan	nan	nan
	nan	nan	nan	nan	nan	nan	nan	nan	nan	nan	nan
	nan	nan	nan	nan	nan	nan	nan	nan	nan	nan	nan
	nan	nan	nan	nan	nan	nan	nan	nan	nan	nan	nan
	nan	nan	nan	nan	nan	nan	nan	nan	nan	nan	nan
	nan	nan	nan	nan	nan	nan	nan	nan	nan	nan	nan
	nan	nan	nan	nan	nan	nan	nan	nan	nan	nan	nan
	nan	nan	nan	nan	nan	nan	nan	nan	nan	nan	nan
	nan	nan	nan	nan	nan	nan	nan	nan	nan	nan	nan
	nan	nan	nan	nan	nan	nan	nan	nan	nan	nan	nan
	-nan	-nan	-nan	-nan	-nan	-nan	-nan	-nan	-nan	-nan	-nan
]


Control variables:
[
	2.000000e+01
	2.000000e+01
	2.000000e+01
	2.000000e+01
	2.000000e+01
	-1.467072e+01
	-2.000000e+01
	-2.000000e+01
	-2.000000e+01
	-2.000000e+01
	2.000000e+01
	2.000000e+01
	2.000000e+01
	2.000000e+01
	2.000000e+01
	2.000000e+01
	2.000000e+01
	2.000000e+01
	1.140141e+01
	8.520847e-11
	-1.398698e-12
	-5.375984e-11
	-1.014054e-11
	3.420203e-11
	2.238231e-11
	1.513497e-11
	-4.695559e-11
	4.981056e-11
	-3.525940e-01
	-3.525940e-01
]

Predictions X 		 Predictions Y
-nan		 -nan
nan		 nan
nan		 nan
nan		 nan
nan		 nan
nan		 nan
nan		 nan
nan		 nan
nan		 nan
nan		 nan
nan		 nan
nan		 nan
nan		 nan
nan		 nan
nan		 nan
nan		 nan
nan		 nan
nan		 nan
nan		 nan
nan		 nan
nan		 nan
nan		 nan
nan		 nan
nan		 nan
nan		 nan
nan		 nan
nan		 nan
nan		 nan
nan		 nan
nan		 nan
-nan		 -nan
References X 		 References Y
-119.857		 -46.542
-116.835		 -49.163
-115.324		 -50.473
-113.812		 -51.783
-112.301		 -53.093
-110.791		 -54.403
-109.283		 -55.704
-107.768		 -56.997
-106.247		 -58.282
-104.720		 -59.559
-103.186		 -60.829
-101.646		 -62.091
-100.099		 -63.345
-98.546		 -64.591
-96.987		 -65.830
-95.422		 -67.060
-93.850		 -68.283
-92.273		 -69.498
-90.689		 -70.704
-89.099		 -71.903
-87.503		 -73.094
-85.901		 -74.277
-84.293		 -75.451
-82.679		 -76.618
-81.060		 -77.776
-79.434		 -78.926
-77.803		 -80.068
-76.166		 -81.202
-74.524		 -82.327
-72.875		 -83.444
0.000		 0.000
=============================

 =============================
 ============ MPC ============
 =============================

        MPC VALUES
---------------------------
 Torque cmd:  nan
 Status:      -1
 Prep status: 0

      TIME VALUES
---------------------------
 Loop time [ms]:  10.068
 Exec time [ms]:  1.236

      VEHICLE DATA
---------------------------
Location: (-119.835, -46.562, 0.102)
Rotation: (-0.000, 0.001, -0.714)
Velocity: (1.206, 0.003, 0.001)
Acceleration: (13.887, -0.011, 9.862)
Angular Velocity: (0.000, -0.012, 0.002)
Lateral Error: -0.001
Heading Error: 0.000
Steer Wheel Angle: 0.041
Steer Wheel Angular Velocity: 1.000
Steer Wheel Torque Control: nan


      ACADO COSAS
---------------------------


Differential variables:
[
	-nan	-nan	-nan	-nan	-nan	-nan	-nan	-nan	-nan	-nan	-nan
	nan	nan	nan	nan	nan	nan	nan	nan	nan	nan	nan
	nan	nan	nan	nan	nan	nan	nan	nan	nan	nan	nan
	nan	nan	nan	nan	nan	nan	nan	nan	nan	nan	nan
	nan	nan	nan	nan	nan	nan	nan	nan	nan	nan	nan
	nan	nan	nan	nan	nan	nan	nan	nan	nan	nan	nan
	nan	nan	nan	nan	nan	nan	nan	nan	nan	nan	nan
	nan	nan	nan	nan	nan	nan	nan	nan	nan	nan	nan
	nan	nan	nan	nan	nan	nan	nan	nan	nan	nan	nan
	nan	nan	nan	nan	nan	nan	nan	nan	nan	nan	nan
	nan	nan	nan	nan	nan	nan	nan	nan	nan	nan	nan
	nan	nan	nan	nan	nan	nan	nan	nan	nan	nan	nan
	nan	nan	nan	nan	nan	nan	nan	nan	nan	nan	nan
	nan	nan	nan	nan	nan	nan	nan	nan	nan	nan	nan
	nan	nan	nan	nan	nan	nan	nan	nan	nan	nan	nan
	nan	nan	nan	nan	nan	nan	nan	nan	nan	nan	nan
	nan	nan	nan	nan	nan	nan	nan	nan	nan	nan	nan
	nan	nan	nan	nan	nan	nan	nan	nan	nan	nan	nan
	nan	nan	nan	nan	nan	nan	nan	nan	nan	nan	nan
	nan	nan	nan	nan	nan	nan	nan	nan	nan	nan	nan
	nan	nan	nan	nan	nan	nan	nan	nan	nan	nan	nan
	nan	nan	nan	nan	nan	nan	nan	nan	nan	nan	nan
	nan	nan	nan	nan	nan	nan	nan	nan	nan	nan	nan
	nan	nan	nan	nan	nan	nan	nan	nan	nan	nan	nan
	nan	nan	nan	nan	nan	nan	nan	nan	nan	nan	nan
	nan	nan	nan	nan	nan	nan	nan	nan	nan	nan	nan
	nan	nan	nan	nan	nan	nan	nan	nan	nan	nan	nan
	nan	nan	nan	nan	nan	nan	nan	nan	nan	nan	nan
	nan	nan	nan	nan	nan	nan	nan	nan	nan	nan	nan
	nan	nan	nan	nan	nan	nan	nan	nan	nan	nan	nan
	-nan	-nan	-nan	-nan	-nan	-nan	-nan	-nan	-nan	-nan	-nan
]


Control variables:
[
	2.000000e+01
	2.000000e+01
	2.000000e+01
	2.000000e+01
	2.000000e+01
	-1.467072e+01
	-2.000000e+01
	-2.000000e+01
	-2.000000e+01
	-2.000000e+01
	2.000000e+01
	2.000000e+01
	2.000000e+01
	2.000000e+01
	2.000000e+01
	2.000000e+01
	2.000000e+01
	2.000000e+01
	1.140141e+01
	8.520847e-11
	-1.398698e-12
	-5.375984e-11
	-1.014054e-11
	3.420203e-11
	2.238231e-11
	1.513497e-11
	-4.695559e-11
	4.981056e-11
	-3.525940e-01
	-3.525940e-01
]

Predictions X 		 Predictions Y
-nan		 -nan
nan		 nan
nan		 nan
nan		 nan
nan		 nan
nan		 nan
nan		 nan
nan		 nan
nan		 nan
nan		 nan
nan		 nan
nan		 nan
nan		 nan
nan		 nan
nan		 nan
nan		 nan
nan		 nan
nan		 nan
nan		 nan
nan		 nan
nan		 nan
nan		 nan
nan		 nan
nan		 nan
nan		 nan
nan		 nan
nan		 nan
nan		 nan
nan		 nan
nan		 nan
-nan		 -nan
References X 		 References Y
-119.835		 -46.562
-116.812		 -49.182
-115.301		 -50.492
-113.790		 -51.802
-112.279		 -53.113
-110.768		 -54.423
-109.260		 -55.723
-107.746		 -57.015
-106.225		 -58.300
-104.697		 -59.578
-103.163		 -60.847
-101.623		 -62.109
-100.076		 -63.363
-98.523		 -64.609
-96.964		 -65.848
-95.399		 -67.078
-93.827		 -68.301
-92.249		 -69.515
-90.665		 -70.722
-89.075		 -71.921
-87.479		 -73.111
-85.878		 -74.294
-84.270		 -75.468
-82.656		 -76.635
-81.036		 -77.793
-79.411		 -78.943
-77.779		 -80.085
-76.142		 -81.218
-74.500		 -82.344
-72.851		 -83.460
0.000		 0.000
=============================

 =============================
 ============ MPC ============
 =============================

        MPC VALUES
---------------------------
 Torque cmd:  nan
 Status:      -1
 Prep status: 0

      TIME VALUES
---------------------------
 Loop time [ms]:  10.065
 Exec time [ms]:  1.439

      VEHICLE DATA
---------------------------
Location: (-119.820, -46.576, 0.102)
Rotation: (-0.000, 0.001, -0.714)
Velocity: (1.394, 0.004, -0.001)
Acceleration: (13.836, 0.049, 9.700)
Angular Velocity: (0.000, -0.011, 0.002)
Lateral Error: -0.001
Heading Error: 0.000
Steer Wheel Angle: 0.042
Steer Wheel Angular Velocity: 0.000
Steer Wheel Torque Control: nan


      ACADO COSAS
---------------------------


Differential variables:
[
	-nan	-nan	-nan	-nan	-nan	-nan	-nan	-nan	-nan	-nan	-nan
	nan	nan	nan	nan	nan	nan	nan	nan	nan	nan	nan
	nan	nan	nan	nan	nan	nan	nan	nan	nan	nan	nan
	nan	nan	nan	nan	nan	nan	nan	nan	nan	nan	nan
	nan	nan	nan	nan	nan	nan	nan	nan	nan	nan	nan
	nan	nan	nan	nan	nan	nan	nan	nan	nan	nan	nan
	nan	nan	nan	nan	nan	nan	nan	nan	nan	nan	nan
	nan	nan	nan	nan	nan	nan	nan	nan	nan	nan	nan
	nan	nan	nan	nan	nan	nan	nan	nan	nan	nan	nan
	nan	nan	nan	nan	nan	nan	nan	nan	nan	nan	nan
	nan	nan	nan	nan	nan	nan	nan	nan	nan	nan	nan
	nan	nan	nan	nan	nan	nan	nan	nan	nan	nan	nan
	nan	nan	nan	nan	nan	nan	nan	nan	nan	nan	nan
	nan	nan	nan	nan	nan	nan	nan	nan	nan	nan	nan
	nan	nan	nan	nan	nan	nan	nan	nan	nan	nan	nan
	nan	nan	nan	nan	nan	nan	nan	nan	nan	nan	nan
	nan	nan	nan	nan	nan	nan	nan	nan	nan	nan	nan
	nan	nan	nan	nan	nan	nan	nan	nan	nan	nan	nan
	nan	nan	nan	nan	nan	nan	nan	nan	nan	nan	nan
	nan	nan	nan	nan	nan	nan	nan	nan	nan	nan	nan
	nan	nan	nan	nan	nan	nan	nan	nan	nan	nan	nan
	nan	nan	nan	nan	nan	nan	nan	nan	nan	nan	nan
	nan	nan	nan	nan	nan	nan	nan	nan	nan	nan	nan
	nan	nan	nan	nan	nan	nan	nan	nan	nan	nan	nan
	nan	nan	nan	nan	nan	nan	nan	nan	nan	nan	nan
	nan	nan	nan	nan	nan	nan	nan	nan	nan	nan	nan
	nan	nan	nan	nan	nan	nan	nan	nan	nan	nan	nan
	nan	nan	nan	nan	nan	nan	nan	nan	nan	nan	nan
	nan	nan	nan	nan	nan	nan	nan	nan	nan	nan	nan
	nan	nan	nan	nan	nan	nan	nan	nan	nan	nan	nan
	-nan	-nan	-nan	-nan	-nan	-nan	-nan	-nan	-nan	-nan	-nan
]


Control variables:
[
	2.000000e+01
	2.000000e+01
	2.000000e+01
	2.000000e+01
	2.000000e+01
	-1.467072e+01
	-2.000000e+01
	-2.000000e+01
	-2.000000e+01
	-2.000000e+01
	2.000000e+01
	2.000000e+01
	2.000000e+01
	2.000000e+01
	2.000000e+01
	2.000000e+01
	2.000000e+01
	2.000000e+01
	1.140141e+01
	8.520847e-11
	-1.398698e-12
	-5.375984e-11
	-1.014054e-11
	3.420203e-11
	2.238231e-11
	1.513497e-11
	-4.695559e-11
	4.981056e-11
	-3.525940e-01
	-3.525940e-01
]

Predictions X 		 Predictions Y
-nan		 -nan
nan		 nan
nan		 nan
nan		 nan
nan		 nan
nan		 nan
nan		 nan
nan		 nan
nan		 nan
nan		 nan
nan		 nan
nan		 nan
nan		 nan
nan		 nan
nan		 nan
nan		 nan
nan		 nan
nan		 nan
nan		 nan
nan		 nan
nan		 nan
nan		 nan
nan		 nan
nan		 nan
nan		 nan
nan		 nan
nan		 nan
nan		 nan
nan		 nan
nan		 nan
-nan		 -nan
References X 		 References Y
-119.819		 -46.575
-116.797		 -49.195
-115.286		 -50.506
-113.775		 -51.816
-112.264		 -53.126
-110.753		 -54.436
-109.245		 -55.736
-107.730		 -57.029
-106.209		 -58.314
-104.682		 -59.591
-103.148		 -60.860
-101.607		 -62.122
-100.060		 -63.376
-98.507		 -64.622
-96.948		 -65.860
-95.383		 -67.091
-93.811		 -68.313
-92.233		 -69.528
-90.649		 -70.734
-89.059		 -71.933
-87.463		 -73.124
-85.861		 -74.306
-84.253		 -75.480
-82.639		 -76.647
-81.019		 -77.805
-79.394		 -78.955
-77.762		 -80.096
-76.125		 -81.230
-74.483		 -82.355
-72.834		 -83.472
0.000		 0.000
=============================

 =============================
 ============ MPC ============
 =============================

        MPC VALUES
---------------------------
 Torque cmd:  nan
 Status:      -1
 Prep status: 0

      TIME VALUES
---------------------------
 Loop time [ms]:  10.161
 Exec time [ms]:  1.760

      VEHICLE DATA
---------------------------
Location: (-119.820, -46.576, 0.102)
Rotation: (-0.000, 0.001, -0.714)
Velocity: (1.394, 0.004, -0.001)
Acceleration: (13.836, 0.049, 9.700)
Angular Velocity: (0.000, -0.011, 0.002)
Lateral Error: -0.001
Heading Error: 0.000
Steer Wheel Angle: 0.042
Steer Wheel Angular Velocity: 0.000
Steer Wheel Torque Control: nan


      ACADO COSAS
---------------------------


Differential variables:
[
	-nan	-nan	-nan	-nan	-nan	-nan	-nan	-nan	-nan	-nan	-nan
	nan	nan	nan	nan	nan	nan	nan	nan	nan	nan	nan
	nan	nan	nan	nan	nan	nan	nan	nan	nan	nan	nan
	nan	nan	nan	nan	nan	nan	nan	nan	nan	nan	nan
	nan	nan	nan	nan	nan	nan	nan	nan	nan	nan	nan
	nan	nan	nan	nan	nan	nan	nan	nan	nan	nan	nan
	nan	nan	nan	nan	nan	nan	nan	nan	nan	nan	nan
	nan	nan	nan	nan	nan	nan	nan	nan	nan	nan	nan
	nan	nan	nan	nan	nan	nan	nan	nan	nan	nan	nan
	nan	nan	nan	nan	nan	nan	nan	nan	nan	nan	nan
	nan	nan	nan	nan	nan	nan	nan	nan	nan	nan	nan
	nan	nan	nan	nan	nan	nan	nan	nan	nan	nan	nan
	nan	nan	nan	nan	nan	nan	nan	nan	nan	nan	nan
	nan	nan	nan	nan	nan	nan	nan	nan	nan	nan	nan
	nan	nan	nan	nan	nan	nan	nan	nan	nan	nan	nan
	nan	nan	nan	nan	nan	nan	nan	nan	nan	nan	nan
	nan	nan	nan	nan	nan	nan	nan	nan	nan	nan	nan
	nan	nan	nan	nan	nan	nan	nan	nan	nan	nan	nan
	nan	nan	nan	nan	nan	nan	nan	nan	nan	nan	nan
	nan	nan	nan	nan	nan	nan	nan	nan	nan	nan	nan
	nan	nan	nan	nan	nan	nan	nan	nan	nan	nan	nan
	nan	nan	nan	nan	nan	nan	nan	nan	nan	nan	nan
	nan	nan	nan	nan	nan	nan	nan	nan	nan	nan	nan
	nan	nan	nan	nan	nan	nan	nan	nan	nan	nan	nan
	nan	nan	nan	nan	nan	nan	nan	nan	nan	nan	nan
	nan	nan	nan	nan	nan	nan	nan	nan	nan	nan	nan
	nan	nan	nan	nan	nan	nan	nan	nan	nan	nan	nan
	nan	nan	nan	nan	nan	nan	nan	nan	nan	nan	nan
	nan	nan	nan	nan	nan	nan	nan	nan	nan	nan	nan
	nan	nan	nan	nan	nan	nan	nan	nan	nan	nan	nan
	-nan	-nan	-nan	-nan	-nan	-nan	-nan	-nan	-nan	-nan	-nan
]


Control variables:
[
	2.000000e+01
	2.000000e+01
	2.000000e+01
	2.000000e+01
	2.000000e+01
	-1.467072e+01
	-2.000000e+01
	-2.000000e+01
	-2.000000e+01
	-2.000000e+01
	2.000000e+01
	2.000000e+01
	2.000000e+01
	2.000000e+01
	2.000000e+01
	2.000000e+01
	2.000000e+01
	2.000000e+01
	1.140141e+01
	8.520847e-11
	-1.398698e-12
	-5.375984e-11
	-1.014054e-11
	3.420203e-11
	2.238231e-11
	1.513497e-11
	-4.695559e-11
	4.981056e-11
	-3.525940e-01
	-3.525940e-01
]

Predictions X 		 Predictions Y
-nan		 -nan
nan		 nan
nan		 nan
nan		 nan
nan		 nan
nan		 nan
nan		 nan
nan		 nan
nan		 nan
nan		 nan
nan		 nan
nan		 nan
nan		 nan
nan		 nan
nan		 nan
nan		 nan
nan		 nan
nan		 nan
nan		 nan
nan		 nan
nan		 nan
nan		 nan
nan		 nan
nan		 nan
nan		 nan
nan		 nan
nan		 nan
nan		 nan
nan		 nan
nan		 nan
-nan		 -nan
References X 		 References Y
-119.819		 -46.575
-116.797		 -49.195
-115.286		 -50.506
-113.775		 -51.816
-112.264		 -53.126
-110.753		 -54.436
-109.245		 -55.736
-107.730		 -57.029
-106.209		 -58.314
-104.682		 -59.591
-103.148		 -60.860
-101.607		 -62.122
-100.060		 -63.376
-98.507		 -64.622
-96.948		 -65.860
-95.383		 -67.091
-93.811		 -68.313
-92.233		 -69.528
-90.649		 -70.734
-89.059		 -71.933
-87.463		 -73.124
-85.861		 -74.306
-84.253		 -75.480
-82.639		 -76.647
-81.019		 -77.805
-79.394		 -78.955
-77.762		 -80.096
-76.125		 -81.230
-74.483		 -82.355
-72.834		 -83.472
0.000		 0.000
=============================

 =============================
 ============ MPC ============
 =============================

        MPC VALUES
---------------------------
 Torque cmd:  nan
 Status:      -1
 Prep status: 0

      TIME VALUES
---------------------------
 Loop time [ms]:  10.292
 Exec time [ms]:  1.227

      VEHICLE DATA
---------------------------
Location: (-119.796, -46.596, 0.101)
Rotation: (-0.000, 0.001, -0.714)
Velocity: (1.603, 0.004, -0.005)
Acceleration: (10.136, 0.044, 9.981)
Angular Velocity: (0.000, -0.010, 0.002)
Lateral Error: -0.001
Heading Error: 0.000
Steer Wheel Angle: 0.042
Steer Wheel Angular Velocity: 0.000
Steer Wheel Torque Control: nan


      ACADO COSAS
---------------------------


Differential variables:
[
	-nan	-nan	-nan	-nan	-nan	-nan	-nan	-nan	-nan	-nan	-nan
	nan	nan	nan	nan	nan	nan	nan	nan	nan	nan	nan
	nan	nan	nan	nan	nan	nan	nan	nan	nan	nan	nan
	nan	nan	nan	nan	nan	nan	nan	nan	nan	nan	nan
	nan	nan	nan	nan	nan	nan	nan	nan	nan	nan	nan
	nan	nan	nan	nan	nan	nan	nan	nan	nan	nan	nan
	nan	nan	nan	nan	nan	nan	nan	nan	nan	nan	nan
	nan	nan	nan	nan	nan	nan	nan	nan	nan	nan	nan
	nan	nan	nan	nan	nan	nan	nan	nan	nan	nan	nan
	nan	nan	nan	nan	nan	nan	nan	nan	nan	nan	nan
	nan	nan	nan	nan	nan	nan	nan	nan	nan	nan	nan
	nan	nan	nan	nan	nan	nan	nan	nan	nan	nan	nan
	nan	nan	nan	nan	nan	nan	nan	nan	nan	nan	nan
	nan	nan	nan	nan	nan	nan	nan	nan	nan	nan	nan
	nan	nan	nan	nan	nan	nan	nan	nan	nan	nan	nan
	nan	nan	nan	nan	nan	nan	nan	nan	nan	nan	nan
	nan	nan	nan	nan	nan	nan	nan	nan	nan	nan	nan
	nan	nan	nan	nan	nan	nan	nan	nan	nan	nan	nan
	nan	nan	nan	nan	nan	nan	nan	nan	nan	nan	nan
	nan	nan	nan	nan	nan	nan	nan	nan	nan	nan	nan
	nan	nan	nan	nan	nan	nan	nan	nan	nan	nan	nan
	nan	nan	nan	nan	nan	nan	nan	nan	nan	nan	nan
	nan	nan	nan	nan	nan	nan	nan	nan	nan	nan	nan
	nan	nan	nan	nan	nan	nan	nan	nan	nan	nan	nan
	nan	nan	nan	nan	nan	nan	nan	nan	nan	nan	nan
	nan	nan	nan	nan	nan	nan	nan	nan	nan	nan	nan
	nan	nan	nan	nan	nan	nan	nan	nan	nan	nan	nan
	nan	nan	nan	nan	nan	nan	nan	nan	nan	nan	nan
	nan	nan	nan	nan	nan	nan	nan	nan	nan	nan	nan
	nan	nan	nan	nan	nan	nan	nan	nan	nan	nan	nan
	-nan	-nan	-nan	-nan	-nan	-nan	-nan	-nan	-nan	-nan	-nan
]


Control variables:
[
	2.000000e+01
	2.000000e+01
	2.000000e+01
	2.000000e+01
	2.000000e+01
	-1.467072e+01
	-2.000000e+01
	-2.000000e+01
	-2.000000e+01
	-2.000000e+01
	2.000000e+01
	2.000000e+01
	2.000000e+01
	2.000000e+01
	2.000000e+01
	2.000000e+01
	2.000000e+01
	2.000000e+01
	1.140141e+01
	8.520847e-11
	-1.398698e-12
	-5.375984e-11
	-1.014054e-11
	3.420203e-11
	2.238231e-11
	1.513497e-11
	-4.695559e-11
	4.981056e-11
	-3.525940e-01
	-3.525940e-01
]

Predictions X 		 Predictions Y
-nan		 -nan
nan		 nan
nan		 nan
nan		 nan
nan		 nan
nan		 nan
nan		 nan
nan		 nan
nan		 nan
nan		 nan
nan		 nan
nan		 nan
nan		 nan
nan		 nan
nan		 nan
nan		 nan
nan		 nan
nan		 nan
nan		 nan
nan		 nan
nan		 nan
nan		 nan
nan		 nan
nan		 nan
nan		 nan
nan		 nan
nan		 nan
nan		 nan
nan		 nan
nan		 nan
-nan		 -nan
References X 		 References Y
-119.795		 -46.596
-116.773		 -49.216
-115.262		 -50.526
-113.751		 -51.836
-112.240		 -53.147
-110.729		 -54.456
-109.221		 -55.756
-107.707		 -57.049
-106.185		 -58.334
-104.658		 -59.611
-103.124		 -60.880
-101.583		 -62.142
-100.036		 -63.396
-98.483		 -64.642
-96.924		 -65.880
-95.358		 -67.110
-93.786		 -68.332
-92.208		 -69.547
-90.624		 -70.753
-89.034		 -71.952
-87.438		 -73.142
-85.836		 -74.324
-84.228		 -75.499
-82.614		 -76.665
-80.994		 -77.823
-79.368		 -78.973
-77.737		 -80.114
-76.100		 -81.248
-74.457		 -82.373
-72.808		 -83.489
0.000		 0.000
=============================

 =============================
 ============ MPC ============
 =============================

        MPC VALUES
---------------------------
 Torque cmd:  nan
 Status:      -1
 Prep status: 0

      TIME VALUES
---------------------------
 Loop time [ms]:  10.230
 Exec time [ms]:  1.578

      VEHICLE DATA
---------------------------
Location: (-119.782, -46.608, 0.101)
Rotation: (-0.000, 0.001, -0.714)
Velocity: (1.705, 0.005, -0.000)
Acceleration: (7.448, 0.093, 10.302)
Angular Velocity: (0.000, -0.008, 0.003)
Lateral Error: -0.001
Heading Error: 0.000
Steer Wheel Angle: 0.041
Steer Wheel Angular Velocity: 0.000
Steer Wheel Torque Control: nan


      ACADO COSAS
---------------------------


Differential variables:
[
	-nan	-nan	-nan	-nan	-nan	-nan	-nan	-nan	-nan	-nan	-nan
	nan	nan	nan	nan	nan	nan	nan	nan	nan	nan	nan
	nan	nan	nan	nan	nan	nan	nan	nan	nan	nan	nan
	nan	nan	nan	nan	nan	nan	nan	nan	nan	nan	nan
	nan	nan	nan	nan	nan	nan	nan	nan	nan	nan	nan
	nan	nan	nan	nan	nan	nan	nan	nan	nan	nan	nan
	nan	nan	nan	nan	nan	nan	nan	nan	nan	nan	nan
	nan	nan	nan	nan	nan	nan	nan	nan	nan	nan	nan
	nan	nan	nan	nan	nan	nan	nan	nan	nan	nan	nan
	nan	nan	nan	nan	nan	nan	nan	nan	nan	nan	nan
	nan	nan	nan	nan	nan	nan	nan	nan	nan	nan	nan
	nan	nan	nan	nan	nan	nan	nan	nan	nan	nan	nan
	nan	nan	nan	nan	nan	nan	nan	nan	nan	nan	nan
	nan	nan	nan	nan	nan	nan	nan	nan	nan	nan	nan
	nan	nan	nan	nan	nan	nan	nan	nan	nan	nan	nan
	nan	nan	nan	nan	nan	nan	nan	nan	nan	nan	nan
	nan	nan	nan	nan	nan	nan	nan	nan	nan	nan	nan
	nan	nan	nan	nan	nan	nan	nan	nan	nan	nan	nan
	nan	nan	nan	nan	nan	nan	nan	nan	nan	nan	nan
	nan	nan	nan	nan	nan	nan	nan	nan	nan	nan	nan
	nan	nan	nan	nan	nan	nan	nan	nan	nan	nan	nan
	nan	nan	nan	nan	nan	nan	nan	nan	nan	nan	nan
	nan	nan	nan	nan	nan	nan	nan	nan	nan	nan	nan
	nan	nan	nan	nan	nan	nan	nan	nan	nan	nan	nan
	nan	nan	nan	nan	nan	nan	nan	nan	nan	nan	nan
	nan	nan	nan	nan	nan	nan	nan	nan	nan	nan	nan
	nan	nan	nan	nan	nan	nan	nan	nan	nan	nan	nan
	nan	nan	nan	nan	nan	nan	nan	nan	nan	nan	nan
	nan	nan	nan	nan	nan	nan	nan	nan	nan	nan	nan
	nan	nan	nan	nan	nan	nan	nan	nan	nan	nan	nan
	-nan	-nan	-nan	-nan	-nan	-nan	-nan	-nan	-nan	-nan	-nan
]


Control variables:
[
	2.000000e+01
	2.000000e+01
	2.000000e+01
	2.000000e+01
	2.000000e+01
	-1.467072e+01
	-2.000000e+01
	-2.000000e+01
	-2.000000e+01
	-2.000000e+01
	2.000000e+01
	2.000000e+01
	2.000000e+01
	2.000000e+01
	2.000000e+01
	2.000000e+01
	2.000000e+01
	2.000000e+01
	1.140141e+01
	8.520847e-11
	-1.398698e-12
	-5.375984e-11
	-1.014054e-11
	3.420203e-11
	2.238231e-11
	1.513497e-11
	-4.695559e-11
	4.981056e-11
	-3.525940e-01
	-3.525940e-01
]

Predictions X 		 Predictions Y
-nan		 -nan
nan		 nan
nan		 nan
nan		 nan
nan		 nan
nan		 nan
nan		 nan
nan		 nan
nan		 nan
nan		 nan
nan		 nan
nan		 nan
nan		 nan
nan		 nan
nan		 nan
nan		 nan
nan		 nan
nan		 nan
nan		 nan
nan		 nan
nan		 nan
nan		 nan
nan		 nan
nan		 nan
nan		 nan
nan		 nan
nan		 nan
nan		 nan
nan		 nan
nan		 nan
-nan		 -nan
References X 		 References Y
-119.782		 -46.608
-116.759		 -49.228
-115.248		 -50.538
-113.737		 -51.848
-112.226		 -53.159
-110.716		 -54.468
-109.207		 -55.768
-107.693		 -57.061
-106.171		 -58.345
-104.644		 -59.622
-103.110		 -60.892
-101.569		 -62.153
-100.022		 -63.407
-98.469		 -64.653
-96.909		 -65.891
-95.344		 -67.121
-93.772		 -68.343
-92.194		 -69.558
-90.610		 -70.764
-89.020		 -71.963
-87.423		 -73.153
-85.821		 -74.335
-84.213		 -75.509
-82.599		 -76.675
-80.979		 -77.833
-79.353		 -78.983
-77.722		 -80.125
-76.085		 -81.258
-74.442		 -82.383
-72.793		 -83.500
0.000		 0.000
=============================

 =============================
 ============ MPC ============
 =============================

        MPC VALUES
---------------------------
 Torque cmd:  nan
 Status:      -1
 Prep status: 0

      TIME VALUES
---------------------------
 Loop time [ms]:  12.301
 Exec time [ms]:  1.317

      VEHICLE DATA
---------------------------
Location: (-119.761, -46.626, 0.101)
Rotation: (-0.000, 0.001, -0.714)
Velocity: (1.828, 0.005, -0.003)
Acceleration: (9.081, -0.081, 9.674)
Angular Velocity: (0.000, -0.006, 0.004)
Lateral Error: -0.001
Heading Error: 0.000
Steer Wheel Angle: 0.041
Steer Wheel Angular Velocity: 0.000
Steer Wheel Torque Control: nan


      ACADO COSAS
---------------------------


Differential variables:
[
	-nan	-nan	-nan	-nan	-nan	-nan	-nan	-nan	-nan	-nan	-nan
	nan	nan	nan	nan	nan	nan	nan	nan	nan	nan	nan
	nan	nan	nan	nan	nan	nan	nan	nan	nan	nan	nan
	nan	nan	nan	nan	nan	nan	nan	nan	nan	nan	nan
	nan	nan	nan	nan	nan	nan	nan	nan	nan	nan	nan
	nan	nan	nan	nan	nan	nan	nan	nan	nan	nan	nan
	nan	nan	nan	nan	nan	nan	nan	nan	nan	nan	nan
	nan	nan	nan	nan	nan	nan	nan	nan	nan	nan	nan
	nan	nan	nan	nan	nan	nan	nan	nan	nan	nan	nan
	nan	nan	nan	nan	nan	nan	nan	nan	nan	nan	nan
	nan	nan	nan	nan	nan	nan	nan	nan	nan	nan	nan
	nan	nan	nan	nan	nan	nan	nan	nan	nan	nan	nan
	nan	nan	nan	nan	nan	nan	nan	nan	nan	nan	nan
	nan	nan	nan	nan	nan	nan	nan	nan	nan	nan	nan
	nan	nan	nan	nan	nan	nan	nan	nan	nan	nan	nan
	nan	nan	nan	nan	nan	nan	nan	nan	nan	nan	nan
	nan	nan	nan	nan	nan	nan	nan	nan	nan	nan	nan
	nan	nan	nan	nan	nan	nan	nan	nan	nan	nan	nan
	nan	nan	nan	nan	nan	nan	nan	nan	nan	nan	nan
	nan	nan	nan	nan	nan	nan	nan	nan	nan	nan	nan
	nan	nan	nan	nan	nan	nan	nan	nan	nan	nan	nan
	nan	nan	nan	nan	nan	nan	nan	nan	nan	nan	nan
	nan	nan	nan	nan	nan	nan	nan	nan	nan	nan	nan
	nan	nan	nan	nan	nan	nan	nan	nan	nan	nan	nan
	nan	nan	nan	nan	nan	nan	nan	nan	nan	nan	nan
	nan	nan	nan	nan	nan	nan	nan	nan	nan	nan	nan
	nan	nan	nan	nan	nan	nan	nan	nan	nan	nan	nan
	nan	nan	nan	nan	nan	nan	nan	nan	nan	nan	nan
	nan	nan	nan	nan	nan	nan	nan	nan	nan	nan	nan
	nan	nan	nan	nan	nan	nan	nan	nan	nan	nan	nan
	-nan	-nan	-nan	-nan	-nan	-nan	-nan	-nan	-nan	-nan	-nan
]


Control variables:
[
	2.000000e+01
	2.000000e+01
	2.000000e+01
	2.000000e+01
	2.000000e+01
	-1.467072e+01
	-2.000000e+01
	-2.000000e+01
	-2.000000e+01
	-2.000000e+01
	2.000000e+01
	2.000000e+01
	2.000000e+01
	2.000000e+01
	2.000000e+01
	2.000000e+01
	2.000000e+01
	2.000000e+01
	1.140141e+01
	8.520847e-11
	-1.398698e-12
	-5.375984e-11
	-1.014054e-11
	3.420203e-11
	2.238231e-11
	1.513497e-11
	-4.695559e-11
	4.981056e-11
	-3.525940e-01
	-3.525940e-01
]

Predictions X 		 Predictions Y
-nan		 -nan
nan		 nan
nan		 nan
nan		 nan
nan		 nan
nan		 nan
nan		 nan
nan		 nan
nan		 nan
nan		 nan
nan		 nan
nan		 nan
nan		 nan
nan		 nan
nan		 nan
nan		 nan
nan		 nan
nan		 nan
nan		 nan
nan		 nan
nan		 nan
nan		 nan
nan		 nan
nan		 nan
nan		 nan
nan		 nan
nan		 nan
nan		 nan
nan		 nan
nan		 nan
-nan		 -nan
References X 		 References Y
-119.761		 -46.625
-116.739		 -49.246
-115.228		 -50.556
-113.717		 -51.866
-112.206		 -53.176
-110.695		 -54.486
-109.187		 -55.786
-107.672		 -57.078
-106.151		 -58.363
-104.623		 -59.640
-103.089		 -60.909
-101.548		 -62.170
-100.001		 -63.424
-98.448		 -64.670
-96.888		 -65.908
-95.322		 -67.138
-93.750		 -68.360
-92.172		 -69.574
-90.588		 -70.781
-88.998		 -71.979
-87.402		 -73.169
-85.799		 -74.351
-84.191		 -75.525
-82.577		 -76.691
-80.957		 -77.849
-79.331		 -78.999
-77.700		 -80.140
-76.062		 -81.273
-74.419		 -82.398
-72.771		 -83.515
0.000		 0.000
=============================

 =============================
 ============ MPC ============
 =============================

        MPC VALUES
---------------------------
 Torque cmd:  nan
 Status:      -1
 Prep status: 0

      TIME VALUES
---------------------------
 Loop time [ms]:  10.089
 Exec time [ms]:  1.647

      VEHICLE DATA
---------------------------
Location: (-119.761, -46.626, 0.101)
Rotation: (-0.000, 0.001, -0.714)
Velocity: (1.828, 0.005, -0.003)
Acceleration: (9.081, -0.081, 9.674)
Angular Velocity: (0.000, -0.006, 0.004)
Lateral Error: -0.001
Heading Error: 0.000
Steer Wheel Angle: 0.041
Steer Wheel Angular Velocity: 0.000
Steer Wheel Torque Control: nan


      ACADO COSAS
---------------------------


Differential variables:
[
	-nan	-nan	-nan	-nan	-nan	-nan	-nan	-nan	-nan	-nan	-nan
	nan	nan	nan	nan	nan	nan	nan	nan	nan	nan	nan
	nan	nan	nan	nan	nan	nan	nan	nan	nan	nan	nan
	nan	nan	nan	nan	nan	nan	nan	nan	nan	nan	nan
	nan	nan	nan	nan	nan	nan	nan	nan	nan	nan	nan
	nan	nan	nan	nan	nan	nan	nan	nan	nan	nan	nan
	nan	nan	nan	nan	nan	nan	nan	nan	nan	nan	nan
	nan	nan	nan	nan	nan	nan	nan	nan	nan	nan	nan
	nan	nan	nan	nan	nan	nan	nan	nan	nan	nan	nan
	nan	nan	nan	nan	nan	nan	nan	nan	nan	nan	nan
	nan	nan	nan	nan	nan	nan	nan	nan	nan	nan	nan
	nan	nan	nan	nan	nan	nan	nan	nan	nan	nan	nan
	nan	nan	nan	nan	nan	nan	nan	nan	nan	nan	nan
	nan	nan	nan	nan	nan	nan	nan	nan	nan	nan	nan
	nan	nan	nan	nan	nan	nan	nan	nan	nan	nan	nan
	nan	nan	nan	nan	nan	nan	nan	nan	nan	nan	nan
	nan	nan	nan	nan	nan	nan	nan	nan	nan	nan	nan
	nan	nan	nan	nan	nan	nan	nan	nan	nan	nan	nan
	nan	nan	nan	nan	nan	nan	nan	nan	nan	nan	nan
	nan	nan	nan	nan	nan	nan	nan	nan	nan	nan	nan
	nan	nan	nan	nan	nan	nan	nan	nan	nan	nan	nan
	nan	nan	nan	nan	nan	nan	nan	nan	nan	nan	nan
	nan	nan	nan	nan	nan	nan	nan	nan	nan	nan	nan
	nan	nan	nan	nan	nan	nan	nan	nan	nan	nan	nan
	nan	nan	nan	nan	nan	nan	nan	nan	nan	nan	nan
	nan	nan	nan	nan	nan	nan	nan	nan	nan	nan	nan
	nan	nan	nan	nan	nan	nan	nan	nan	nan	nan	nan
	nan	nan	nan	nan	nan	nan	nan	nan	nan	nan	nan
	nan	nan	nan	nan	nan	nan	nan	nan	nan	nan	nan
	nan	nan	nan	nan	nan	nan	nan	nan	nan	nan	nan
	-nan	-nan	-nan	-nan	-nan	-nan	-nan	-nan	-nan	-nan	-nan
]


Control variables:
[
	2.000000e+01
	2.000000e+01
	2.000000e+01
	2.000000e+01
	2.000000e+01
	-1.467072e+01
	-2.000000e+01
	-2.000000e+01
	-2.000000e+01
	-2.000000e+01
	2.000000e+01
	2.000000e+01
	2.000000e+01
	2.000000e+01
	2.000000e+01
	2.000000e+01
	2.000000e+01
	2.000000e+01
	1.140141e+01
	8.520847e-11
	-1.398698e-12
	-5.375984e-11
	-1.014054e-11
	3.420203e-11
	2.238231e-11
	1.513497e-11
	-4.695559e-11
	4.981056e-11
	-3.525940e-01
	-3.525940e-01
]

Predictions X 		 Predictions Y
-nan		 -nan
nan		 nan
nan		 nan
nan		 nan
nan		 nan
nan		 nan
nan		 nan
nan		 nan
nan		 nan
nan		 nan
nan		 nan
nan		 nan
nan		 nan
nan		 nan
nan		 nan
nan		 nan
nan		 nan
nan		 nan
nan		 nan
nan		 nan
nan		 nan
nan		 nan
nan		 nan
nan		 nan
nan		 nan
nan		 nan
nan		 nan
nan		 nan
nan		 nan
nan		 nan
-nan		 -nan
References X 		 References Y
-119.761		 -46.625
-116.739		 -49.246
-115.228		 -50.556
-113.717		 -51.866
-112.206		 -53.176
-110.695		 -54.486
-109.187		 -55.786
-107.672		 -57.078
-106.151		 -58.363
-104.623		 -59.640
-103.089		 -60.909
-101.548		 -62.170
-100.001		 -63.424
-98.448		 -64.670
-96.888		 -65.908
-95.322		 -67.138
-93.750		 -68.360
-92.172		 -69.574
-90.588		 -70.781
-88.998		 -71.979
-87.402		 -73.169
-85.799		 -74.351
-84.191		 -75.525
-82.577		 -76.691
-80.957		 -77.849
-79.331		 -78.999
-77.700		 -80.140
-76.062		 -81.273
-74.419		 -82.398
-72.771		 -83.515
0.000		 0.000
=============================

