^C:\MAURICIO\MATLABCODE\STEERING\SRC\01ACQUISITION\TIMEIN\ZTIMEIN.CPP
/c /IC:\MAURICIO\MATLABCODE\STEERING\SRC\TECLIBS\INC /IC:\MAURICIO\MATLABCODE\STEERING\SRC\..\EXT\EIGEN /IC:\MAURICIO\MATLABCODE\STEERING\SRC\..\EXT\TINYXML2\INSTALL\INCLUDE /IC:\MAURICIO\MATLABCODE\STEERING\SRC\..\EXT\SIMPLEMOTIONV2\INSTALL\.. /IC:\MAURICIO\MATLABCODE\STEERING\SRC\..\EXT\SDL2\INCLUDE /I"C:\PROGRAM FILES\MATLAB\R2018A\EXTERN\INCLUDE" /I"C:\PROGRAM FILES\MATLAB\R2018A\SIMULINK\INCLUDE" /nologo /W3 /WX- /diagnostics:classic /O2 /Ob2 /D WIN32 /D _WINDOWS /D NDEBUG /D MATLAB_DEFAULT_RELEASE=R2017b /D MATLAB_MEX_FILE /D _CRT_SECURE_NO_WARNINGS /D _SCL_SECURE_NO_WARNINGS /D "CMAKE_INTDIR=\"Release\"" /D "DLL_EXPORT_SYM=__declspec(dllexport)" /D _WINDLL /D _MBCS /Gm- /EHsc /MD /GS /fp:precise /Zc:wchar_t /Zc:forScope /Zc:inline /GR /Fo"ZTIMEIN.DIR\RELEASE\\" /Fd"ZTIMEIN.DIR\RELEASE\VC141.PDB" /Gd /TP C:\MAURICIO\MATLABCODE\STEERING\SRC\01ACQUISITION\TIMEIN\ZTIMEIN.CPP
^C:\PROGRAM FILES\MATLAB\R2018A\EXTERN\VERSION\C_MEXAPI_VERSION.C
/c /IC:\MAURICIO\MATLABCODE\STEERING\SRC\TECLIBS\INC /IC:\MAURICIO\MATLABCODE\STEERING\SRC\..\EXT\EIGEN /IC:\MAURICIO\MATLABCODE\STEERING\SRC\..\EXT\TINYXML2\INSTALL\INCLUDE /IC:\MAURICIO\MATLABCODE\STEERING\SRC\..\EXT\SIMPLEMOTIONV2\INSTALL\.. /IC:\MAURICIO\MATLABCODE\STEERING\SRC\..\EXT\SDL2\INCLUDE /I"C:\PROGRAM FILES\MATLAB\R2018A\EXTERN\INCLUDE" /I"C:\PROGRAM FILES\MATLAB\R2018A\SIMULINK\INCLUDE" /nologo /W3 /WX- /diagnostics:classic /O2 /Ob2 /D WIN32 /D _WINDOWS /D NDEBUG /D MATLAB_DEFAULT_RELEASE=R2017b /D MATLAB_MEX_FILE /D _CRT_SECURE_NO_WARNINGS /D _SCL_SECURE_NO_WARNINGS /D "CMAKE_INTDIR=\"Release\"" /D "DLL_EXPORT_SYM=__declspec(dllexport)" /D _WINDLL /D _MBCS /Gm- /EHsc /MD /GS /fp:precise /Zc:wchar_t /Zc:forScope /Zc:inline /GR /Fo"ZTIMEIN.DIR\RELEASE\\" /Fd"ZTIMEIN.DIR\RELEASE\VC141.PDB" /Gd /TC C:\PROGRAM FILES\MATLAB\R2018A\EXTERN\VERSION\C_MEXAPI_VERSION.C
