^C:\MAURICIO\MATLABCODE\STEERING\SRC\BUILD\01ACQUISITION\TIMEIN\ZTIMEIN.DIR\RELEASE\ZTIMEIN.OBJ
/OUT:"C:\MAURICIO\MATLABCODE\STEERING\SRC\BUILD\01ACQUISITION\TIMEIN\RELEASE\ZTIMEIN.MEXW64" /INCREMENTAL:NO /NOLOGO /LIBPATH:C:/MAURICIO/MATLABCODE/STEERING/SRC/../EXT/TINYXML2/INSTALL/LIB /LIBPATH:C:/MAURICIO/MATLABCODE/STEERING/SRC/../EXT/TINYXML2/INSTALL/LIB/RELEASE /LIBPATH:C:/MAURICIO/MATLABCODE/STEERING/SRC/../EXT/SIMPLEMOTIONV2/INSTALL/LIB /LIBPATH:C:/MAURICIO/MATLABCODE/STEERING/SRC/../EXT/SIMPLEMOTIONV2/INSTALL/LIB/RELEASE /LIBPATH:C:/MAURICIO/MATLABCODE/STEERING/SRC/../EXT/SIMPLEMOTIONV2/INSTALL/../DRIVERS/FTDI_D2XX/THIRD_PARTY/WIN_64BIT /LIBPATH:C:/MAURICIO/MATLABCODE/STEERING/SRC/../EXT/SIMPLEMOTIONV2/INSTALL/../DRIVERS/FTDI_D2XX/THIRD_PARTY/WIN_64BIT/RELEASE /LIBPATH:C:/MAURICIO/MATLABCODE/STEERING/SRC/../EXT/SDL2/LIB/X64 /LIBPATH:C:/MAURICIO/MATLABCODE/STEERING/SRC/../EXT/SDL2/LIB/X64/RELEASE "C:\PROGRAM FILES\MATLAB\R2018A\EXTERN\LIB\WIN64\MICROSOFT\LIBMX.LIB" "C:\PROGRAM FILES\MATLAB\R2018A\EXTERN\LIB\WIN64\MICROSOFT\LIBMEX.LIB" ..\..\TECLIBS\RELEASE\TECLIBS.LIB TINYXML2.LIB SIMPLEMOTIONV2.LIB FTD2XX.LIB DINPUT8.LIB DXGUID.LIB COMCTL32.LIB SDL2.LIB SDL2MAIN.LIB "C:\PROGRAM FILES\MATLAB\R2018A\EXTERN\LIB\WIN64\MICROSOFT\LIBMEX.LIB" "C:\PROGRAM FILES\MATLAB\R2018A\EXTERN\LIB\WIN64\MICROSOFT\LIBMX.LIB" WS2_32.LIB SIMPLEMOTIONV2.LIB FTD2XX.LIB DINPUT8.LIB DXGUID.LIB COMCTL32.LIB SDL2.LIB SDL2MAIN.LIB WS2_32.LIB TINYXML2.LIB KERNEL32.LIB USER32.LIB GDI32.LIB WINSPOOL.LIB SHELL32.LIB OLE32.LIB OLEAUT32.LIB UUID.LIB COMDLG32.LIB ADVAPI32.LIB /MANIFEST /MANIFESTUAC:"level='asInvoker' uiAccess='false'" /manifest:embed /PDB:"C:/MAURICIO/MATLABCODE/STEERING/SRC/BUILD/01ACQUISITION/TIMEIN/RELEASE/ZTIMEIN.PDB" /SUBSYSTEM:CONSOLE /TLBID:1 /DYNAMICBASE /NXCOMPAT /IMPLIB:"C:/MAURICIO/MATLABCODE/STEERING/SRC/BUILD/01ACQUISITION/TIMEIN/RELEASE/ZTIMEIN.LIB" /MACHINE:X64  /machine:x64 /EXPORT:mexFunction /DLL ZTIMEIN.DIR\RELEASE\ZTIMEIN.OBJ
^C:\MAURICIO\MATLABCODE\STEERING\SRC\BUILD\01ACQUISITION\TIMEIN\ZTIMEIN.DIR\RELEASE\C_MEXAPI_VERSION.OBJ|C:\MAURICIO\MATLABCODE\STEERING\SRC\BUILD\01ACQUISITION\TIMEIN\ZTIMEIN.DIR\RELEASE\ZTIMEIN.OBJ
/OUT:"C:\MAURICIO\MATLABCODE\STEERING\SRC\BUILD\01ACQUISITION\TIMEIN\RELEASE\ZTIMEIN.MEXW64" /INCREMENTAL:NO /NOLOGO /LIBPATH:C:/MAURICIO/MATLABCODE/STEERING/SRC/../EXT/TINYXML2/INSTALL/LIB /LIBPATH:C:/MAURICIO/MATLABCODE/STEERING/SRC/../EXT/TINYXML2/INSTALL/LIB/RELEASE /LIBPATH:C:/MAURICIO/MATLABCODE/STEERING/SRC/../EXT/SIMPLEMOTIONV2/INSTALL/LIB /LIBPATH:C:/MAURICIO/MATLABCODE/STEERING/SRC/../EXT/SIMPLEMOTIONV2/INSTALL/LIB/RELEASE /LIBPATH:C:/MAURICIO/MATLABCODE/STEERING/SRC/../EXT/SIMPLEMOTIONV2/INSTALL/../DRIVERS/FTDI_D2XX/THIRD_PARTY/WIN_64BIT /LIBPATH:C:/MAURICIO/MATLABCODE/STEERING/SRC/../EXT/SIMPLEMOTIONV2/INSTALL/../DRIVERS/FTDI_D2XX/THIRD_PARTY/WIN_64BIT/RELEASE /LIBPATH:C:/MAURICIO/MATLABCODE/STEERING/SRC/../EXT/SDL2/LIB/X64 /LIBPATH:C:/MAURICIO/MATLABCODE/STEERING/SRC/../EXT/SDL2/LIB/X64/RELEASE "C:\PROGRAM FILES\MATLAB\R2018A\EXTERN\LIB\WIN64\MICROSOFT\LIBMATLABENGINE.LIB" "C:\PROGRAM FILES\MATLAB\R2018A\EXTERN\LIB\WIN64\MICROSOFT\LIBMATLABDATAARRAY.LIB" "C:\PROGRAM FILES\MATLAB\R2018A\EXTERN\LIB\WIN64\MICROSOFT\LIBMEX.LIB" "C:\PROGRAM FILES\MATLAB\R2018A\EXTERN\LIB\WIN64\MICROSOFT\LIBMX.LIB" ..\..\TECLIBS\RELEASE\TECLIBS.LIB TINYXML2.LIB SIMPLEMOTIONV2.LIB FTD2XX.LIB DINPUT8.LIB DXGUID.LIB COMCTL32.LIB SDL2.LIB SDL2MAIN.LIB "C:\PROGRAM FILES\MATLAB\R2018A\EXTERN\LIB\WIN64\MICROSOFT\LIBMEX.LIB" "C:\PROGRAM FILES\MATLAB\R2018A\EXTERN\LIB\WIN64\MICROSOFT\LIBMX.LIB" "C:\PROGRAM FILES\MATLAB\R2018A\EXTERN\LIB\WIN64\MICROSOFT\LIBMATLABDATAARRAY.LIB" "C:\PROGRAM FILES\MATLAB\R2018A\EXTERN\LIB\WIN64\MICROSOFT\LIBMATLABENGINE.LIB" WS2_32.LIB SIMPLEMOTIONV2.LIB FTD2XX.LIB DINPUT8.LIB DXGUID.LIB COMCTL32.LIB SDL2.LIB SDL2MAIN.LIB WS2_32.LIB TINYXML2.LIB KERNEL32.LIB USER32.LIB GDI32.LIB WINSPOOL.LIB SHELL32.LIB OLE32.LIB OLEAUT32.LIB UUID.LIB COMDLG32.LIB ADVAPI32.LIB /MANIFEST /MANIFESTUAC:"level='asInvoker' uiAccess='false'" /manifest:embed /PDB:"C:/MAURICIO/MATLABCODE/STEERING/SRC/BUILD/01ACQUISITION/TIMEIN/RELEASE/ZTIMEIN.PDB" /SUBSYSTEM:CONSOLE /TLBID:1 /DYNAMICBASE /NXCOMPAT /IMPLIB:"C:/MAURICIO/MATLABCODE/STEERING/SRC/BUILD/01ACQUISITION/TIMEIN/RELEASE/ZTIMEIN.LIB" /MACHINE:X64  /machine:x64 /EXPORT:mexFunction /EXPORT:mexfilerequiredapiversion /DLL ZTIMEIN.DIR\RELEASE\ZTIMEIN.OBJZTIMEIN.DIR\RELEASE\C_MEXAPI_VERSION.OBJ
