^E:\WORKSPACE\PRYSTINE\SIMULINK\UC1\MODULES\VSC++\TECLIBS\SRC\LIB_COMMUNICATIONS.C|E:\WORKSPACE\PRYSTINE\SIMULINK\UC1\MODULES\VSC++\TECLIBS\SRC\LIB_CONTROL.C|E:\WORKSPACE\PRYSTINE\SIMULINK\UC1\MODULES\VSC++\TECLIBS\SRC\LIB_CONTROLV2.C|E:\WORKSPACE\PRYSTINE\SIMULINK\UC1\MODULES\VSC++\TECLIBS\SRC\LIB_CSVANDLISTMANAGEMENT.C|E:\WORKSPACE\PRYSTINE\SIMULINK\UC1\MODULES\VSC++\TECLIBS\SRC\LIB_MATH.C|E:\WORKSPACE\PRYSTINE\SIMULINK\UC1\MODULES\VSC++\TECLIBS\SRC\LIB_MATLAB_DYNACAR.C|E:\WORKSPACE\PRYSTINE\SIMULINK\UC1\MODULES\VSC++\TECLIBS\SRC\LIB_PLANNING.C|E:\WORKSPACE\PRYSTINE\SIMULINK\UC1\MODULES\VSC++\TECLIBS\SRC\LIB_VEHICLESTATE.C
E:\WORKSPACE\PRYSTINE\SIMULINK\UC1\MODULES\VSC++\BUILD\TECLIBS\TECLIBS.DIR\DEBUG\TECLIBS.PDB
E:\WORKSPACE\PRYSTINE\SIMULINK\UC1\MODULES\VSC++\BUILD\TECLIBS\TECLIBS.DIR\DEBUG\LIB_VEHICLESTATE.OBJ
E:\WORKSPACE\PRYSTINE\SIMULINK\UC1\MODULES\VSC++\BUILD\TECLIBS\TECLIBS.DIR\DEBUG\LIB_PLANNING.OBJ
E:\WORKSPACE\PRYSTINE\SIMULINK\UC1\MODULES\VSC++\BUILD\TECLIBS\TECLIBS.DIR\DEBUG\LIB_MATLAB_DYNACAR.OBJ
E:\WORKSPACE\PRYSTINE\SIMULINK\UC1\MODULES\VSC++\BUILD\TECLIBS\TECLIBS.DIR\DEBUG\LIB_MATH.OBJ
E:\WORKSPACE\PRYSTINE\SIMULINK\UC1\MODULES\VSC++\BUILD\TECLIBS\TECLIBS.DIR\DEBUG\LIB_CSVANDLISTMANAGEMENT.OBJ
E:\WORKSPACE\PRYSTINE\SIMULINK\UC1\MODULES\VSC++\BUILD\TECLIBS\TECLIBS.DIR\DEBUG\LIB_CONTROLV2.OBJ
E:\WORKSPACE\PRYSTINE\SIMULINK\UC1\MODULES\VSC++\BUILD\TECLIBS\TECLIBS.DIR\DEBUG\LIB_CONTROL.OBJ
E:\WORKSPACE\PRYSTINE\SIMULINK\UC1\MODULES\VSC++\BUILD\TECLIBS\TECLIBS.DIR\DEBUG\LIB_COMMUNICATIONS.OBJ
^E:\WORKSPACE\PRYSTINE\SIMULINK\UC1\MODULES\VSC++\TECLIBS\SRC\LIB_COMMUNICATIONS.C
E:\WORKSPACE\PRYSTINE\SIMULINK\UC1\MODULES\VSC++\BUILD\TECLIBS\TECLIBS.DIR\DEBUG\TECLIBS.PDB
^E:\WORKSPACE\PRYSTINE\SIMULINK\UC1\MODULES\VSC++\TECLIBS\SRC\LIB_CONTROL.C
E:\WORKSPACE\PRYSTINE\SIMULINK\UC1\MODULES\VSC++\BUILD\TECLIBS\TECLIBS.DIR\DEBUG\TECLIBS.PDB
^E:\WORKSPACE\PRYSTINE\SIMULINK\UC1\MODULES\VSC++\TECLIBS\SRC\LIB_CONTROLV2.C
E:\WORKSPACE\PRYSTINE\SIMULINK\UC1\MODULES\VSC++\BUILD\TECLIBS\TECLIBS.DIR\DEBUG\TECLIBS.PDB
^E:\WORKSPACE\PRYSTINE\SIMULINK\UC1\MODULES\VSC++\TECLIBS\SRC\LIB_CSVANDLISTMANAGEMENT.C
E:\WORKSPACE\PRYSTINE\SIMULINK\UC1\MODULES\VSC++\BUILD\TECLIBS\TECLIBS.DIR\DEBUG\TECLIBS.PDB
^E:\WORKSPACE\PRYSTINE\SIMULINK\UC1\MODULES\VSC++\TECLIBS\SRC\LIB_MATH.C
E:\WORKSPACE\PRYSTINE\SIMULINK\UC1\MODULES\VSC++\BUILD\TECLIBS\TECLIBS.DIR\DEBUG\TECLIBS.PDB
^E:\WORKSPACE\PRYSTINE\SIMULINK\UC1\MODULES\VSC++\TECLIBS\SRC\LIB_MATLAB_DYNACAR.C
E:\WORKSPACE\PRYSTINE\SIMULINK\UC1\MODULES\VSC++\BUILD\TECLIBS\TECLIBS.DIR\DEBUG\TECLIBS.PDB
^E:\WORKSPACE\PRYSTINE\SIMULINK\UC1\MODULES\VSC++\TECLIBS\SRC\LIB_PLANNING.C
E:\WORKSPACE\PRYSTINE\SIMULINK\UC1\MODULES\VSC++\BUILD\TECLIBS\TECLIBS.DIR\DEBUG\TECLIBS.PDB
^E:\WORKSPACE\PRYSTINE\SIMULINK\UC1\MODULES\VSC++\TECLIBS\SRC\LIB_VEHICLESTATE.C
E:\WORKSPACE\PRYSTINE\SIMULINK\UC1\MODULES\VSC++\BUILD\TECLIBS\TECLIBS.DIR\DEBUG\TECLIBS.PDB
^E:\WORKSPACE\PRYSTINE\SIMULINK\UC1\MODULES\VSC++\TECLIBS\SRC\CONTROL_DOUBLEPROPORTIONALK.CPP|E:\WORKSPACE\PRYSTINE\SIMULINK\UC1\MODULES\VSC++\TECLIBS\SRC\CONTROL_DOUBLEPROPORTIONALOVERTAKING.CPP|E:\WORKSPACE\PRYSTINE\SIMULINK\UC1\MODULES\VSC++\TECLIBS\SRC\LIB_CONTROL_CPP.CPP|E:\WORKSPACE\PRYSTINE\SIMULINK\UC1\MODULES\VSC++\TECLIBS\SRC\LIB_VEHICLESTATE_CPP.CPP|E:\WORKSPACE\PRYSTINE\SIMULINK\UC1\MODULES\VSC++\TECLIBS\SRC\MATH_BEZIER.CPP|E:\WORKSPACE\PRYSTINE\SIMULINK\UC1\MODULES\VSC++\TECLIBS\SRC\MATH_CIRCLE.CPP|E:\WORKSPACE\PRYSTINE\SIMULINK\UC1\MODULES\VSC++\TECLIBS\SRC\MATH_GEOMETRY.CPP|E:\WORKSPACE\PRYSTINE\SIMULINK\UC1\MODULES\VSC++\TECLIBS\SRC\MATH_SQUARE.CPP|E:\WORKSPACE\PRYSTINE\SIMULINK\UC1\MODULES\VSC++\TECLIBS\SRC\PLANNING_BUFFER.CPP|E:\WORKSPACE\PRYSTINE\SIMULINK\UC1\MODULES\VSC++\TECLIBS\SRC\PLANNING_GLOBALMAP.CPP|E:\WORKSPACE\PRYSTINE\SIMULINK\UC1\MODULES\VSC++\TECLIBS\SRC\PLANNING_LOCALMAP.CPP|E:\WORKSPACE\PRYSTINE\SIMULINK\UC1\MODULES\VSC++\TECLIBS\SRC\PLANNING_SIMPLEMAP.CPP|E:\WORKSPACE\PRYSTINE\SIMULINK\UC1\MODULES\VSC++\TECLIBS\SRC\PLANNING_SIMPLEMAPNODE.CPP|E:\WORKSPACE\PRYSTINE\SIMULINK\UC1\MODULES\VSC++\TECLIBS\SRC\TIME_CALC.CPP|E:\WORKSPACE\PRYSTINE\SIMULINK\UC1\MODULES\VSC++\TECLIBS\SRC\TRIFUZZY.CPP
E:\WORKSPACE\PRYSTINE\SIMULINK\UC1\MODULES\VSC++\BUILD\TECLIBS\TECLIBS.DIR\DEBUG\TECLIBS.PDB
E:\WORKSPACE\PRYSTINE\SIMULINK\UC1\MODULES\VSC++\BUILD\TECLIBS\TECLIBS.DIR\DEBUG\TIME_CALC.OBJ
E:\WORKSPACE\PRYSTINE\SIMULINK\UC1\MODULES\VSC++\BUILD\TECLIBS\TECLIBS.DIR\DEBUG\CONTROL_DOUBLEPROPORTIONALOVERTAKING.OBJ
E:\WORKSPACE\PRYSTINE\SIMULINK\UC1\MODULES\VSC++\BUILD\TECLIBS\TECLIBS.DIR\DEBUG\CONTROL_DOUBLEPROPORTIONALK.OBJ
E:\WORKSPACE\PRYSTINE\SIMULINK\UC1\MODULES\VSC++\BUILD\TECLIBS\TECLIBS.DIR\DEBUG\PLANNING_SIMPLEMAPNODE.OBJ
E:\WORKSPACE\PRYSTINE\SIMULINK\UC1\MODULES\VSC++\BUILD\TECLIBS\TECLIBS.DIR\DEBUG\PLANNING_SIMPLEMAP.OBJ
E:\WORKSPACE\PRYSTINE\SIMULINK\UC1\MODULES\VSC++\BUILD\TECLIBS\TECLIBS.DIR\DEBUG\PLANNING_LOCALMAP.OBJ
E:\WORKSPACE\PRYSTINE\SIMULINK\UC1\MODULES\VSC++\BUILD\TECLIBS\TECLIBS.DIR\DEBUG\PLANNING_GLOBALMAP.OBJ
E:\WORKSPACE\PRYSTINE\SIMULINK\UC1\MODULES\VSC++\BUILD\TECLIBS\TECLIBS.DIR\DEBUG\PLANNING_BUFFER.OBJ
E:\WORKSPACE\PRYSTINE\SIMULINK\UC1\MODULES\VSC++\BUILD\TECLIBS\TECLIBS.DIR\DEBUG\MATH_GEOMETRY.OBJ
E:\WORKSPACE\PRYSTINE\SIMULINK\UC1\MODULES\VSC++\BUILD\TECLIBS\TECLIBS.DIR\DEBUG\MATH_SQUARE.OBJ
E:\WORKSPACE\PRYSTINE\SIMULINK\UC1\MODULES\VSC++\BUILD\TECLIBS\TECLIBS.DIR\DEBUG\MATH_CIRCLE.OBJ
E:\WORKSPACE\PRYSTINE\SIMULINK\UC1\MODULES\VSC++\BUILD\TECLIBS\TECLIBS.DIR\DEBUG\MATH_BEZIER.OBJ
E:\WORKSPACE\PRYSTINE\SIMULINK\UC1\MODULES\VSC++\BUILD\TECLIBS\TECLIBS.DIR\DEBUG\TRIFUZZY.OBJ
E:\WORKSPACE\PRYSTINE\SIMULINK\UC1\MODULES\VSC++\BUILD\TECLIBS\TECLIBS.DIR\DEBUG\LIB_VEHICLESTATE_CPP.OBJ
E:\WORKSPACE\PRYSTINE\SIMULINK\UC1\MODULES\VSC++\BUILD\TECLIBS\TECLIBS.DIR\DEBUG\LIB_CONTROL_CPP.OBJ
^E:\WORKSPACE\PRYSTINE\SIMULINK\UC1\MODULES\VSC++\TECLIBS\SRC\LIB_CONTROL_CPP.CPP
E:\WORKSPACE\PRYSTINE\SIMULINK\UC1\MODULES\VSC++\BUILD\TECLIBS\TECLIBS.DIR\DEBUG\TECLIBS.PDB
^E:\WORKSPACE\PRYSTINE\SIMULINK\UC1\MODULES\VSC++\TECLIBS\SRC\LIB_VEHICLESTATE_CPP.CPP
E:\WORKSPACE\PRYSTINE\SIMULINK\UC1\MODULES\VSC++\BUILD\TECLIBS\TECLIBS.DIR\DEBUG\TECLIBS.PDB
^E:\WORKSPACE\PRYSTINE\SIMULINK\UC1\MODULES\VSC++\TECLIBS\SRC\TRIFUZZY.CPP
E:\WORKSPACE\PRYSTINE\SIMULINK\UC1\MODULES\VSC++\BUILD\TECLIBS\TECLIBS.DIR\DEBUG\TECLIBS.PDB
^E:\WORKSPACE\PRYSTINE\SIMULINK\UC1\MODULES\VSC++\TECLIBS\SRC\MATH_BEZIER.CPP
E:\WORKSPACE\PRYSTINE\SIMULINK\UC1\MODULES\VSC++\BUILD\TECLIBS\TECLIBS.DIR\DEBUG\TECLIBS.PDB
^E:\WORKSPACE\PRYSTINE\SIMULINK\UC1\MODULES\VSC++\TECLIBS\SRC\MATH_CIRCLE.CPP
E:\WORKSPACE\PRYSTINE\SIMULINK\UC1\MODULES\VSC++\BUILD\TECLIBS\TECLIBS.DIR\DEBUG\TECLIBS.PDB
^E:\WORKSPACE\PRYSTINE\SIMULINK\UC1\MODULES\VSC++\TECLIBS\SRC\MATH_SQUARE.CPP
E:\WORKSPACE\PRYSTINE\SIMULINK\UC1\MODULES\VSC++\BUILD\TECLIBS\TECLIBS.DIR\DEBUG\TECLIBS.PDB
^E:\WORKSPACE\PRYSTINE\SIMULINK\UC1\MODULES\VSC++\TECLIBS\SRC\MATH_GEOMETRY.CPP
E:\WORKSPACE\PRYSTINE\SIMULINK\UC1\MODULES\VSC++\BUILD\TECLIBS\TECLIBS.DIR\DEBUG\TECLIBS.PDB
^E:\WORKSPACE\PRYSTINE\SIMULINK\UC1\MODULES\VSC++\TECLIBS\SRC\PLANNING_BUFFER.CPP
E:\WORKSPACE\PRYSTINE\SIMULINK\UC1\MODULES\VSC++\BUILD\TECLIBS\TECLIBS.DIR\DEBUG\TECLIBS.PDB
^E:\WORKSPACE\PRYSTINE\SIMULINK\UC1\MODULES\VSC++\TECLIBS\SRC\PLANNING_GLOBALMAP.CPP
E:\WORKSPACE\PRYSTINE\SIMULINK\UC1\MODULES\VSC++\BUILD\TECLIBS\TECLIBS.DIR\DEBUG\TECLIBS.PDB
^E:\WORKSPACE\PRYSTINE\SIMULINK\UC1\MODULES\VSC++\TECLIBS\SRC\PLANNING_LOCALMAP.CPP
E:\WORKSPACE\PRYSTINE\SIMULINK\UC1\MODULES\VSC++\BUILD\TECLIBS\TECLIBS.DIR\DEBUG\TECLIBS.PDB
^E:\WORKSPACE\PRYSTINE\SIMULINK\UC1\MODULES\VSC++\TECLIBS\SRC\PLANNING_SIMPLEMAP.CPP
E:\WORKSPACE\PRYSTINE\SIMULINK\UC1\MODULES\VSC++\BUILD\TECLIBS\TECLIBS.DIR\DEBUG\TECLIBS.PDB
^E:\WORKSPACE\PRYSTINE\SIMULINK\UC1\MODULES\VSC++\TECLIBS\SRC\PLANNING_SIMPLEMAPNODE.CPP
E:\WORKSPACE\PRYSTINE\SIMULINK\UC1\MODULES\VSC++\BUILD\TECLIBS\TECLIBS.DIR\DEBUG\TECLIBS.PDB
^E:\WORKSPACE\PRYSTINE\SIMULINK\UC1\MODULES\VSC++\TECLIBS\SRC\CONTROL_DOUBLEPROPORTIONALK.CPP
E:\WORKSPACE\PRYSTINE\SIMULINK\UC1\MODULES\VSC++\BUILD\TECLIBS\TECLIBS.DIR\DEBUG\TECLIBS.PDB
^E:\WORKSPACE\PRYSTINE\SIMULINK\UC1\MODULES\VSC++\TECLIBS\SRC\CONTROL_DOUBLEPROPORTIONALOVERTAKING.CPP
E:\WORKSPACE\PRYSTINE\SIMULINK\UC1\MODULES\VSC++\BUILD\TECLIBS\TECLIBS.DIR\DEBUG\TECLIBS.PDB
^E:\WORKSPACE\PRYSTINE\SIMULINK\UC1\MODULES\VSC++\TECLIBS\SRC\TIME_CALC.CPP
E:\WORKSPACE\PRYSTINE\SIMULINK\UC1\MODULES\VSC++\BUILD\TECLIBS\TECLIBS.DIR\DEBUG\TECLIBS.PDB
