^C:\MAURICIO\MATLABCODE\STEERING\SRC\01ACQUISITION\STEERING\SRC\PEDAL.CPP
/c /IC:\MAURICIO\MATLABCODE\STEERING\SRC\TECLIBS\INC /IC:\MAURICIO\MATLABCODE\STEERING\SRC\..\EXT\EIGEN /IC:\MAURICIO\MATLABCODE\STEERING\SRC\..\EXT\TINYXML2\INSTALL\INCLUDE /IC:\MAURICIO\MATLABCODE\STEERING\SRC\..\EXT\SIMPLEMOTIONV2\INSTALL\.. /IC:\MAURICIO\MATLABCODE\STEERING\SRC\..\EXT\SDL2\INCLUDE /I"C:\PROGRAM FILES\MATLAB\R2018A\EXTERN\INCLUDE" /I"C:\PROGRAM FILES\MATLAB\R2018A\SIMULINK\INCLUDE" /nologo /W3 /WX- /diagnostics:classic /O2 /Ob2 /D WIN32 /D _WINDOWS /D NDEBUG /D MATLAB_DEFAULT_RELEASE=R2017b /D MATLAB_MEX_FILE /D _CRT_SECURE_NO_WARNINGS /D _SCL_SECURE_NO_WARNINGS /D "CMAKE_INTDIR=\"Release\"" /D "DLL_EXPORT_SYM=__declspec(dllexport)" /D _WINDLL /D _MBCS /Gm- /EHsc /MD /GS /fp:precise /Zc:wchar_t /Zc:forScope /Zc:inline /GR /Fo"ZSTEERING.DIR\RELEASE\\" /Fd"ZSTEERING.DIR\RELEASE\VC141.PDB" /Gd /TP C:\MAURICIO\MATLABCODE\STEERING\SRC\01ACQUISITION\STEERING\SRC\PEDAL.CPP
^C:\MAURICIO\MATLABCODE\STEERING\SRC\01ACQUISITION\STEERING\ZSTEERING.CPP
/c /IC:\MAURICIO\MATLABCODE\STEERING\SRC\TECLIBS\INC /IC:\MAURICIO\MATLABCODE\STEERING\SRC\..\EXT\EIGEN /IC:\MAURICIO\MATLABCODE\STEERING\SRC\..\EXT\TINYXML2\INSTALL\INCLUDE /IC:\MAURICIO\MATLABCODE\STEERING\SRC\..\EXT\SIMPLEMOTIONV2\INSTALL\.. /IC:\MAURICIO\MATLABCODE\STEERING\SRC\..\EXT\SDL2\INCLUDE /I"C:\PROGRAM FILES\MATLAB\R2018A\EXTERN\INCLUDE" /I"C:\PROGRAM FILES\MATLAB\R2018A\SIMULINK\INCLUDE" /nologo /W3 /WX- /diagnostics:classic /O2 /Ob2 /D WIN32 /D _WINDOWS /D NDEBUG /D MATLAB_DEFAULT_RELEASE=R2017b /D MATLAB_MEX_FILE /D _CRT_SECURE_NO_WARNINGS /D _SCL_SECURE_NO_WARNINGS /D "CMAKE_INTDIR=\"Release\"" /D "DLL_EXPORT_SYM=__declspec(dllexport)" /D _WINDLL /D _MBCS /Gm- /EHsc /MD /GS /fp:precise /Zc:wchar_t /Zc:forScope /Zc:inline /GR /Fo"ZSTEERING.DIR\RELEASE\\" /Fd"ZSTEERING.DIR\RELEASE\VC141.PDB" /Gd /TP C:\MAURICIO\MATLABCODE\STEERING\SRC\01ACQUISITION\STEERING\ZSTEERING.CPP
^C:\PROGRAM FILES\MATLAB\R2018A\EXTERN\VERSION\C_MEXAPI_VERSION.C
/c /IC:\MAURICIO\MATLABCODE\STEERING\SRC\TECLIBS\INC /IC:\MAURICIO\MATLABCODE\STEERING\SRC\..\EXT\EIGEN /IC:\MAURICIO\MATLABCODE\STEERING\SRC\..\EXT\TINYXML2\INSTALL\INCLUDE /IC:\MAURICIO\MATLABCODE\STEERING\SRC\..\EXT\SIMPLEMOTIONV2\INSTALL\.. /IC:\MAURICIO\MATLABCODE\STEERING\SRC\..\EXT\SDL2\INCLUDE /I"C:\PROGRAM FILES\MATLAB\R2018A\EXTERN\INCLUDE" /I"C:\PROGRAM FILES\MATLAB\R2018A\SIMULINK\INCLUDE" /nologo /W3 /WX- /diagnostics:classic /O2 /Ob2 /D WIN32 /D _WINDOWS /D NDEBUG /D MATLAB_DEFAULT_RELEASE=R2017b /D MATLAB_MEX_FILE /D _CRT_SECURE_NO_WARNINGS /D _SCL_SECURE_NO_WARNINGS /D "CMAKE_INTDIR=\"Release\"" /D "DLL_EXPORT_SYM=__declspec(dllexport)" /D _WINDLL /D _MBCS /Gm- /EHsc /MD /GS /fp:precise /Zc:wchar_t /Zc:forScope /Zc:inline /GR /Fo"ZSTEERING.DIR\RELEASE\\" /Fd"ZSTEERING.DIR\RELEASE\VC141.PDB" /Gd /TC C:\PROGRAM FILES\MATLAB\R2018A\EXTERN\VERSION\C_MEXAPI_VERSION.C
^G:\STEERING\SRC\01ACQUISITION\STEERING\SRC\PEDAL.CPP
/c /IG:\STEERING\SRC\TECLIBS\INC /IG:\STEERING\SRC\..\EXT\EIGEN /IG:\STEERING\SRC\..\EXT\TINYXML2\INSTALL\INCLUDE /IG:\STEERING\SRC\..\EXT\SIMPLEMOTIONV2\INSTALL\.. /IG:\STEERING\SRC\..\EXT\SDL2\INCLUDE /I"C:\PROGRAM FILES\MATLAB\R2018A\EXTERN\INCLUDE" /I"C:\PROGRAM FILES\MATLAB\R2018A\SIMULINK\INCLUDE" /nologo /W3 /WX- /diagnostics:classic /O2 /Ob2 /D WIN32 /D _WINDOWS /D NDEBUG /D MATLAB_MEX_FILE /D _CRT_SECURE_NO_WARNINGS /D _SCL_SECURE_NO_WARNINGS /D "CMAKE_INTDIR=\"Release\"" /D "DLL_EXPORT_SYM=__declspec(dllexport)" /D _WINDLL /D _MBCS /Gm- /EHsc /MD /GS /fp:precise /Zc:wchar_t /Zc:forScope /Zc:inline /GR /Fo"ZSTEERING.DIR\RELEASE\\" /Fd"ZSTEERING.DIR\RELEASE\VC141.PDB" /Gd /TP G:\STEERING\SRC\01ACQUISITION\STEERING\SRC\PEDAL.CPP
^G:\STEERING\SRC\01ACQUISITION\STEERING\ZSTEERING.CPP
/c /IG:\STEERING\SRC\TECLIBS\INC /IG:\STEERING\SRC\..\EXT\EIGEN /IG:\STEERING\SRC\..\EXT\TINYXML2\INSTALL\INCLUDE /IG:\STEERING\SRC\..\EXT\SIMPLEMOTIONV2\INSTALL\.. /IG:\STEERING\SRC\..\EXT\SDL2\INCLUDE /I"C:\PROGRAM FILES\MATLAB\R2018A\EXTERN\INCLUDE" /I"C:\PROGRAM FILES\MATLAB\R2018A\SIMULINK\INCLUDE" /nologo /W3 /WX- /diagnostics:classic /O2 /Ob2 /D WIN32 /D _WINDOWS /D NDEBUG /D MATLAB_MEX_FILE /D _CRT_SECURE_NO_WARNINGS /D _SCL_SECURE_NO_WARNINGS /D "CMAKE_INTDIR=\"Release\"" /D "DLL_EXPORT_SYM=__declspec(dllexport)" /D _WINDLL /D _MBCS /Gm- /EHsc /MD /GS /fp:precise /Zc:wchar_t /Zc:forScope /Zc:inline /GR /Fo"ZSTEERING.DIR\RELEASE\\" /Fd"ZSTEERING.DIR\RELEASE\VC141.PDB" /Gd /TP G:\STEERING\SRC\01ACQUISITION\STEERING\ZSTEERING.CPP
^E:\DOCUMENTS\2. TECNALIA\1. SOFTWARE\CODIGO\MATLAB\STEERING\SRC\01ACQUISITION\STEERING\SRC\PEDAL.CPP
/c /I"E:\DOCUMENTS\2. TECNALIA\1. SOFTWARE\CODIGO\MATLAB\STEERING\SRC\TECLIBS\INC" /I"E:\DOCUMENTS\2. TECNALIA\1. SOFTWARE\CODIGO\MATLAB\STEERING\SRC\..\EXT\EIGEN" /I"E:\DOCUMENTS\2. TECNALIA\1. SOFTWARE\CODIGO\MATLAB\STEERING\SRC\..\EXT\TINYXML2\INSTALL\INCLUDE" /I"E:\DOCUMENTS\2. TECNALIA\1. SOFTWARE\CODIGO\MATLAB\STEERING\SRC\..\EXT\SIMPLEMOTIONV2\INSTALL\.." /I"E:\DOCUMENTS\2. TECNALIA\1. SOFTWARE\CODIGO\MATLAB\STEERING\SRC\..\EXT\SDL2\INCLUDE" /I"C:\PROGRAM FILES\MATLAB\R2018A\EXTERN\INCLUDE" /I"C:\PROGRAM FILES\MATLAB\R2018A\SIMULINK\INCLUDE" /nologo /W3 /WX- /diagnostics:classic /O2 /Ob2 /D WIN32 /D _WINDOWS /D NDEBUG /D MATLAB_MEX_FILE /D _CRT_SECURE_NO_WARNINGS /D _SCL_SECURE_NO_WARNINGS /D "CMAKE_INTDIR=\"Release\"" /D "DLL_EXPORT_SYM=__declspec(dllexport)" /D _WINDLL /D _MBCS /Gm- /EHsc /MD /GS /fp:precise /Zc:wchar_t /Zc:forScope /Zc:inline /GR /Fo"ZSTEERING.DIR\RELEASE\\" /Fd"ZSTEERING.DIR\RELEASE\VC141.PDB" /Gd /TP E:\DOCUMENTS\2. TECNALIA\1. SOFTWARE\CODIGO\MATLAB\STEERING\SRC\01ACQUISITION\STEERING\SRC\PEDAL.CPP
^E:\DOCUMENTS\2. TECNALIA\1. SOFTWARE\CODIGO\MATLAB\STEERING\SRC\01ACQUISITION\STEERING\ZSTEERING.CPP
/c /I"E:\DOCUMENTS\2. TECNALIA\1. SOFTWARE\CODIGO\MATLAB\STEERING\SRC\TECLIBS\INC" /I"E:\DOCUMENTS\2. TECNALIA\1. SOFTWARE\CODIGO\MATLAB\STEERING\SRC\..\EXT\EIGEN" /I"E:\DOCUMENTS\2. TECNALIA\1. SOFTWARE\CODIGO\MATLAB\STEERING\SRC\..\EXT\TINYXML2\INSTALL\INCLUDE" /I"E:\DOCUMENTS\2. TECNALIA\1. SOFTWARE\CODIGO\MATLAB\STEERING\SRC\..\EXT\SIMPLEMOTIONV2\INSTALL\.." /I"E:\DOCUMENTS\2. TECNALIA\1. SOFTWARE\CODIGO\MATLAB\STEERING\SRC\..\EXT\SDL2\INCLUDE" /I"C:\PROGRAM FILES\MATLAB\R2018A\EXTERN\INCLUDE" /I"C:\PROGRAM FILES\MATLAB\R2018A\SIMULINK\INCLUDE" /nologo /W3 /WX- /diagnostics:classic /O2 /Ob2 /D WIN32 /D _WINDOWS /D NDEBUG /D MATLAB_MEX_FILE /D _CRT_SECURE_NO_WARNINGS /D _SCL_SECURE_NO_WARNINGS /D "CMAKE_INTDIR=\"Release\"" /D "DLL_EXPORT_SYM=__declspec(dllexport)" /D _WINDLL /D _MBCS /Gm- /EHsc /MD /GS /fp:precise /Zc:wchar_t /Zc:forScope /Zc:inline /GR /Fo"ZSTEERING.DIR\RELEASE\\" /Fd"ZSTEERING.DIR\RELEASE\VC141.PDB" /Gd /TP E:\DOCUMENTS\2. TECNALIA\1. SOFTWARE\CODIGO\MATLAB\STEERING\SRC\01ACQUISITION\STEERING\ZSTEERING.CPP
