^E:\Workspace\prystine\simulink\UC1\modules\vsc++\build\06Actuators\Button\zButton.vcxproj
E:\Workspace\prystine\simulink\UC1\modules\vsc++\build\06Actuators\Button\Debug\zButton.lib
E:\Workspace\prystine\simulink\UC1\modules\vsc++\build\06Actuators\Button\Debug\zButton.exp
