^E:\Workspace\prystine\simulink\UC1\modules\vsc++\build\07Miscellaneous\Sounds\zSounds.vcxproj
E:\Workspace\prystine\simulink\UC1\modules\vsc++\build\07Miscellaneous\Sounds\Release\zSounds.lib
E:\Workspace\prystine\simulink\UC1\modules\vsc++\build\07Miscellaneous\Sounds\Release\zSounds.exp
