^C:\MAURICIO\HADRIAN\SIMULINK\EXP_HAROLD\MODULES\VSC++\BUILD\06ACTUATORS\PEDALS\ZPEDALS.DIR\RELEASE\ZPEDALS.OBJ
C:\PROGRAM FILES\MATLAB\R2018A\EXTERN\LIB\WIN64\MICROSOFT\LIBMX.LIB
C:\PROGRAM FILES\MATLAB\R2018A\EXTERN\LIB\WIN64\MICROSOFT\LIBMEX.LIB
C:\MAURICIO\HADRIAN\SIMULINK\EXP_HAROLD\MODULES\VSC++\BUILD\TECLIBS\RELEASE\TECLIBS.LIB
C:\MAURICIO\HADRIAN\SIMULINK\EXP_HAROLD\MODULES\VSC++\EXT\TINYXML2\INSTALL\LIB\TINYXML2.LIB
C:\MAURICIO\HADRIAN\SIMULINK\EXP_HAROLD\MODULES\VSC++\EXT\SIMPLEMOTIONV2\INSTALL\LIB\SIMPLEMOTIONV2.LIB
C:\MAURICIO\HADRIAN\SIMULINK\EXP_HAROLD\MODULES\VSC++\EXT\SIMPLEMOTIONV2\DRIVERS\FTDI_D2XX\THIRD_PARTY\WIN_64BIT\FTD2XX.LIB
C:\PROGRAM FILES (X86)\WINDOWS KITS\10\LIB\10.0.17763.0\UM\X64\DINPUT8.LIB
C:\PROGRAM FILES (X86)\WINDOWS KITS\10\LIB\10.0.17763.0\UM\X64\DXGUID.LIB
C:\PROGRAM FILES (X86)\WINDOWS KITS\10\LIB\10.0.17763.0\UM\X64\COMCTL32.LIB
C:\MAURICIO\HADRIAN\SIMULINK\EXP_HAROLD\MODULES\VSC++\EXT\SDL2\LIB\X64\SDL2.LIB
C:\MAURICIO\HADRIAN\SIMULINK\EXP_HAROLD\MODULES\VSC++\EXT\SDL2\LIB\X64\SDL2MAIN.LIB
C:\PROGRAM FILES (X86)\WINDOWS KITS\10\LIB\10.0.17763.0\UM\X64\WS2_32.LIB
C:\PROGRAM FILES (X86)\WINDOWS KITS\10\LIB\10.0.17763.0\UM\X64\KERNEL32.LIB
C:\PROGRAM FILES (X86)\WINDOWS KITS\10\LIB\10.0.17763.0\UM\X64\USER32.LIB
C:\PROGRAM FILES (X86)\WINDOWS KITS\10\LIB\10.0.17763.0\UM\X64\GDI32.LIB
C:\PROGRAM FILES (X86)\WINDOWS KITS\10\LIB\10.0.17763.0\UM\X64\WINSPOOL.LIB
C:\PROGRAM FILES (X86)\WINDOWS KITS\10\LIB\10.0.17763.0\UM\X64\SHELL32.LIB
C:\PROGRAM FILES (X86)\WINDOWS KITS\10\LIB\10.0.17763.0\UM\X64\OLE32.LIB
C:\PROGRAM FILES (X86)\WINDOWS KITS\10\LIB\10.0.17763.0\UM\X64\OLEAUT32.LIB
C:\PROGRAM FILES (X86)\WINDOWS KITS\10\LIB\10.0.17763.0\UM\X64\UUID.LIB
C:\PROGRAM FILES (X86)\WINDOWS KITS\10\LIB\10.0.17763.0\UM\X64\COMDLG32.LIB
C:\PROGRAM FILES (X86)\WINDOWS KITS\10\LIB\10.0.17763.0\UM\X64\ADVAPI32.LIB
C:\MAURICIO\HADRIAN\SIMULINK\EXP_HAROLD\MODULES\VSC++\BUILD\06ACTUATORS\PEDALS\ZPEDALS.DIR\RELEASE\ZPEDALS.OBJ
C:\WINDOWS\GLOBALIZATION\SORTING\SORTDEFAULT.NLS
C:\PROGRAM FILES (X86)\MICROSOFT VISUAL STUDIO\2017\WDEXPRESS\VC\TOOLS\MSVC\14.16.27023\LIB\X64\MSVCPRT.LIB
C:\PROGRAM FILES (X86)\MICROSOFT VISUAL STUDIO\2017\WDEXPRESS\VC\TOOLS\MSVC\14.16.27023\LIB\X64\MSVCRT.LIB
C:\PROGRAM FILES (X86)\MICROSOFT VISUAL STUDIO\2017\WDEXPRESS\VC\TOOLS\MSVC\14.16.27023\LIB\X64\OLDNAMES.LIB
C:\PROGRAM FILES (X86)\MICROSOFT VISUAL STUDIO\2017\WDEXPRESS\VC\TOOLS\MSVC\14.16.27023\LIB\X64\VCRUNTIME.LIB
C:\PROGRAM FILES (X86)\WINDOWS KITS\10\LIB\10.0.17763.0\UCRT\X64\UCRT.LIB
C:\WINDOWS\SYSTEM32\TZRES.DLL
C:\PROGRAM FILES (X86)\MICROSOFT VISUAL STUDIO\2017\WDEXPRESS\VC\TOOLS\MSVC\14.16.27023\BIN\HOSTX86\X64\1033\LINKUI.DLL
C:\PROGRAM FILES (X86)\WINDOWS KITS\10\BIN\10.0.17763.0\X86\RC.EXE
C:\PROGRAM FILES (X86)\MICROSOFT VISUAL STUDIO\2017\WDEXPRESS\VC\TOOLS\MSVC\14.16.27023\BIN\HOSTX86\X86\CVTRES.EXE
