^E:\WORKSPACE\PRYSTINE\SIMULINK\UC1\MODULES\VSC++\BUILD\06ACTUATORS\STEERING\ZSTEERING.DIR\DEBUG\ZSTEERING.OBJ
E:\WORKSPACE\PRYSTINE\SIMULINK\UC1\MODULES\VSC++\BUILD\06ACTUATORS\STEERING\DEBUG\ZSTEERING.ILK
E:\WORKSPACE\PRYSTINE\SIMULINK\UC1\MODULES\VSC++\BUILD\06ACTUATORS\STEERING\DEBUG\ZSTEERING.MEXW64
E:\WORKSPACE\PRYSTINE\SIMULINK\UC1\MODULES\VSC++\BUILD\06ACTUATORS\STEERING\DEBUG\ZSTEERING.PDB
