^E:\Workspace\prystine\simulink\UC1\modules\vsc++\build\06Actuators\Steering\zSteering.vcxproj
E:\Workspace\prystine\simulink\UC1\modules\vsc++\build\06Actuators\Steering\Debug\zSteering.lib
E:\Workspace\prystine\simulink\UC1\modules\vsc++\build\06Actuators\Steering\Debug\zSteering.exp
