^E:\WORKSPACE\PRYSTINE\SIMULINK\UC1\MODULES\VSC++\BUILD\06ACTUATORS\STEERING\ZSTEERING.DIR\RELEASE\ZSTEERING.OBJ
E:\WORKSPACE\PRYSTINE\SIMULINK\UC1\MODULES\VSC++\BUILD\06ACTUATORS\STEERING\RELEASE\ZSTEERING.MEXW64
^C:\XABI\AUTOEVAL\SIMULINK\EVASION\MODULES\VSC++\BUILD\06ACTUATORS\STEERING\ZSTEERING.DIR\RELEASE\ZSTEERING.OBJ
C:\XABI\AUTOEVAL\SIMULINK\EVASION\MODULES\VSC++\BUILD\06ACTUATORS\STEERING\RELEASE\ZSTEERING.MEXW64
